<?xml version="1.0" encoding="utf-8"?>
<svg xmlns="http://www.w3.org/2000/svg" xmlns:xlink="http://www.w3.org/1999/xlink" width="600" height="400" viewBox="0 0 2400 1600">
<defs>
  <clipPath id="clip440">
    <rect x="0" y="0" width="2400" height="1600"/>
  </clipPath>
</defs>
<path clip-path="url(#clip440)" d="
M0 1600 L2400 1600 L2400 0 L0 0  Z
  " fill="#363d46" fill-rule="evenodd" fill-opacity="1"/>
<defs>
  <clipPath id="clip441">
    <rect x="480" y="0" width="1681" height="1600"/>
  </clipPath>
</defs>
<path clip-path="url(#clip440)" d="
M247.806 1423.18 L2352.76 1423.18 L2352.76 183.952 L247.806 183.952  Z
  " fill="#30343b" fill-rule="evenodd" fill-opacity="1"/>
<defs>
  <clipPath id="clip442">
    <rect x="247" y="183" width="2106" height="1240"/>
  </clipPath>
</defs>
<polyline clip-path="url(#clip442)" style="stroke:#adb2b7; stroke-linecap:butt; stroke-linejoin:round; stroke-width:2; stroke-opacity:0.1; fill:none" points="
  294.052,1423.18 294.052,183.952 
  "/>
<polyline clip-path="url(#clip442)" style="stroke:#adb2b7; stroke-linecap:butt; stroke-linejoin:round; stroke-width:2; stroke-opacity:0.1; fill:none" points="
  960.429,1423.18 960.429,183.952 
  "/>
<polyline clip-path="url(#clip442)" style="stroke:#adb2b7; stroke-linecap:butt; stroke-linejoin:round; stroke-width:2; stroke-opacity:0.1; fill:none" points="
  1626.81,1423.18 1626.81,183.952 
  "/>
<polyline clip-path="url(#clip442)" style="stroke:#adb2b7; stroke-linecap:butt; stroke-linejoin:round; stroke-width:2; stroke-opacity:0.1; fill:none" points="
  2293.18,1423.18 2293.18,183.952 
  "/>
<polyline clip-path="url(#clip442)" style="stroke:#adb2b7; stroke-linecap:butt; stroke-linejoin:round; stroke-width:2; stroke-opacity:0.1; fill:none" points="
  2959.56,1423.18 2959.56,183.952 
  "/>
<polyline clip-path="url(#clip442)" style="stroke:#adb2b7; stroke-linecap:butt; stroke-linejoin:round; stroke-width:2; stroke-opacity:0.1; fill:none" points="
  1226.98,1423.18 1226.98,183.952 
  "/>
<polyline clip-path="url(#clip440)" style="stroke:#adb2b7; stroke-linecap:butt; stroke-linejoin:round; stroke-width:4; stroke-opacity:1; fill:none" points="
  247.806,1423.18 2352.76,1423.18 
  "/>
<polyline clip-path="url(#clip440)" style="stroke:#adb2b7; stroke-linecap:butt; stroke-linejoin:round; stroke-width:4; stroke-opacity:1; fill:none" points="
  294.052,1423.18 294.052,1404.28 
  "/>
<polyline clip-path="url(#clip440)" style="stroke:#adb2b7; stroke-linecap:butt; stroke-linejoin:round; stroke-width:4; stroke-opacity:1; fill:none" points="
  960.429,1423.18 960.429,1404.28 
  "/>
<polyline clip-path="url(#clip440)" style="stroke:#adb2b7; stroke-linecap:butt; stroke-linejoin:round; stroke-width:4; stroke-opacity:1; fill:none" points="
  1626.81,1423.18 1626.81,1404.28 
  "/>
<polyline clip-path="url(#clip440)" style="stroke:#adb2b7; stroke-linecap:butt; stroke-linejoin:round; stroke-width:4; stroke-opacity:1; fill:none" points="
  2293.18,1423.18 2293.18,1404.28 
  "/>
<polyline clip-path="url(#clip440)" style="stroke:#adb2b7; stroke-linecap:butt; stroke-linejoin:round; stroke-width:4; stroke-opacity:1; fill:none" points="
  2959.56,1423.18 2959.56,1404.28 
  "/>
<polyline clip-path="url(#clip440)" style="stroke:#adb2b7; stroke-linecap:butt; stroke-linejoin:round; stroke-width:4; stroke-opacity:1; fill:none" points="
  1226.98,1423.18 1226.98,1404.28 
  "/>
<path clip-path="url(#clip440)" d="M282.884 1454.1 Q279.272 1454.1 277.444 1457.66 Q275.638 1461.2 275.638 1468.33 Q275.638 1475.44 277.444 1479.01 Q279.272 1482.55 282.884 1482.55 Q286.518 1482.55 288.323 1479.01 Q290.152 1475.44 290.152 1468.33 Q290.152 1461.2 288.323 1457.66 Q286.518 1454.1 282.884 1454.1 M282.884 1450.39 Q288.694 1450.39 291.749 1455 Q294.828 1459.58 294.828 1468.33 Q294.828 1477.06 291.749 1481.67 Q288.694 1486.25 282.884 1486.25 Q277.073 1486.25 273.995 1481.67 Q270.939 1477.06 270.939 1468.33 Q270.939 1459.58 273.995 1455 Q277.073 1450.39 282.884 1450.39 Z" fill="#ffffff" fill-rule="evenodd" fill-opacity="1" /><path clip-path="url(#clip440)" d="M309.828 1453.38 Q307.976 1453.38 306.703 1454.68 Q305.43 1455.95 305.43 1457.8 Q305.43 1459.63 306.703 1460.9 Q307.976 1462.15 309.828 1462.15 Q311.68 1462.15 312.953 1460.9 Q314.226 1459.63 314.226 1457.8 Q314.226 1455.97 312.93 1454.68 Q311.657 1453.38 309.828 1453.38 M309.828 1450.39 Q311.309 1450.39 312.675 1450.97 Q314.041 1451.53 315.036 1452.59 Q316.101 1453.64 316.633 1454.96 Q317.166 1456.27 317.166 1457.8 Q317.166 1460.86 315.013 1462.99 Q312.883 1465.09 309.782 1465.09 Q306.657 1465.09 304.573 1463.01 Q302.49 1460.93 302.49 1457.8 Q302.49 1454.7 304.62 1452.55 Q306.749 1450.39 309.828 1450.39 Z" fill="#ffffff" fill-rule="evenodd" fill-opacity="1" /><path clip-path="url(#clip440)" d="M939.04 1451.02 L957.397 1451.02 L957.397 1454.96 L943.323 1454.96 L943.323 1463.43 Q944.341 1463.08 945.36 1462.92 Q946.378 1462.73 947.397 1462.73 Q953.184 1462.73 956.563 1465.9 Q959.943 1469.08 959.943 1474.49 Q959.943 1480.07 956.471 1483.17 Q952.998 1486.25 946.679 1486.25 Q944.503 1486.25 942.235 1485.88 Q939.989 1485.51 937.582 1484.77 L937.582 1480.07 Q939.665 1481.2 941.887 1481.76 Q944.11 1482.32 946.586 1482.32 Q950.591 1482.32 952.929 1480.21 Q955.267 1478.1 955.267 1474.49 Q955.267 1470.88 952.929 1468.77 Q950.591 1466.67 946.586 1466.67 Q944.711 1466.67 942.836 1467.08 Q940.985 1467.5 939.04 1468.38 L939.04 1451.02 Z" fill="#ffffff" fill-rule="evenodd" fill-opacity="1" /><path clip-path="url(#clip440)" d="M975.938 1453.38 Q974.086 1453.38 972.813 1454.68 Q971.54 1455.95 971.54 1457.8 Q971.54 1459.63 972.813 1460.9 Q974.086 1462.15 975.938 1462.15 Q977.79 1462.15 979.063 1460.9 Q980.336 1459.63 980.336 1457.8 Q980.336 1455.97 979.04 1454.68 Q977.767 1453.38 975.938 1453.38 M975.938 1450.39 Q977.42 1450.39 978.785 1450.97 Q980.151 1451.53 981.146 1452.59 Q982.211 1453.64 982.744 1454.96 Q983.276 1456.27 983.276 1457.8 Q983.276 1460.86 981.123 1462.99 Q978.994 1465.09 975.892 1465.09 Q972.767 1465.09 970.683 1463.01 Q968.6 1460.93 968.6 1457.8 Q968.6 1454.7 970.73 1452.55 Q972.859 1450.39 975.938 1450.39 Z" fill="#ffffff" fill-rule="evenodd" fill-opacity="1" /><path clip-path="url(#clip440)" d="M1590.32 1481.64 L1597.96 1481.64 L1597.96 1455.28 L1589.65 1456.95 L1589.65 1452.69 L1597.92 1451.02 L1602.59 1451.02 L1602.59 1481.64 L1610.23 1481.64 L1610.23 1485.58 L1590.32 1485.58 L1590.32 1481.64 Z" fill="#ffffff" fill-rule="evenodd" fill-opacity="1" /><path clip-path="url(#clip440)" d="M1629.68 1454.1 Q1626.06 1454.1 1624.24 1457.66 Q1622.43 1461.2 1622.43 1468.33 Q1622.43 1475.44 1624.24 1479.01 Q1626.06 1482.55 1629.68 1482.55 Q1633.31 1482.55 1635.12 1479.01 Q1636.94 1475.44 1636.94 1468.33 Q1636.94 1461.2 1635.12 1457.66 Q1633.31 1454.1 1629.68 1454.1 M1629.68 1450.39 Q1635.49 1450.39 1638.54 1455 Q1641.62 1459.58 1641.62 1468.33 Q1641.62 1477.06 1638.54 1481.67 Q1635.49 1486.25 1629.68 1486.25 Q1623.87 1486.25 1620.79 1481.67 Q1617.73 1477.06 1617.73 1468.33 Q1617.73 1459.58 1620.79 1455 Q1623.87 1450.39 1629.68 1450.39 Z" fill="#ffffff" fill-rule="evenodd" fill-opacity="1" /><path clip-path="url(#clip440)" d="M1656.62 1453.38 Q1654.77 1453.38 1653.5 1454.68 Q1652.22 1455.95 1652.22 1457.8 Q1652.22 1459.63 1653.5 1460.9 Q1654.77 1462.15 1656.62 1462.15 Q1658.47 1462.15 1659.75 1460.9 Q1661.02 1459.63 1661.02 1457.8 Q1661.02 1455.97 1659.72 1454.68 Q1658.45 1453.38 1656.62 1453.38 M1656.62 1450.39 Q1658.1 1450.39 1659.47 1450.97 Q1660.83 1451.53 1661.83 1452.59 Q1662.89 1453.64 1663.43 1454.96 Q1663.96 1456.27 1663.96 1457.8 Q1663.96 1460.86 1661.81 1462.99 Q1659.68 1465.09 1656.57 1465.09 Q1653.45 1465.09 1651.37 1463.01 Q1649.28 1460.93 1649.28 1457.8 Q1649.28 1454.7 1651.41 1452.55 Q1653.54 1450.39 1656.62 1450.39 Z" fill="#ffffff" fill-rule="evenodd" fill-opacity="1" /><path clip-path="url(#clip440)" d="M2256.7 1481.64 L2264.34 1481.64 L2264.34 1455.28 L2256.03 1456.95 L2256.03 1452.69 L2264.29 1451.02 L2268.97 1451.02 L2268.97 1481.64 L2276.61 1481.64 L2276.61 1485.58 L2256.7 1485.58 L2256.7 1481.64 Z" fill="#ffffff" fill-rule="evenodd" fill-opacity="1" /><path clip-path="url(#clip440)" d="M2286.1 1451.02 L2304.45 1451.02 L2304.45 1454.96 L2290.38 1454.96 L2290.38 1463.43 Q2291.4 1463.08 2292.42 1462.92 Q2293.44 1462.73 2294.45 1462.73 Q2300.24 1462.73 2303.62 1465.9 Q2307 1469.08 2307 1474.49 Q2307 1480.07 2303.53 1483.17 Q2300.06 1486.25 2293.74 1486.25 Q2291.56 1486.25 2289.29 1485.88 Q2287.05 1485.51 2284.64 1484.77 L2284.64 1480.07 Q2286.72 1481.2 2288.95 1481.76 Q2291.17 1482.32 2293.64 1482.32 Q2297.65 1482.32 2299.99 1480.21 Q2302.33 1478.1 2302.33 1474.49 Q2302.33 1470.88 2299.99 1468.77 Q2297.65 1466.67 2293.64 1466.67 Q2291.77 1466.67 2289.89 1467.08 Q2288.04 1467.5 2286.1 1468.38 L2286.1 1451.02 Z" fill="#ffffff" fill-rule="evenodd" fill-opacity="1" /><path clip-path="url(#clip440)" d="M2323 1453.38 Q2321.14 1453.38 2319.87 1454.68 Q2318.6 1455.95 2318.6 1457.8 Q2318.6 1459.63 2319.87 1460.9 Q2321.14 1462.15 2323 1462.15 Q2324.85 1462.15 2326.12 1460.9 Q2327.39 1459.63 2327.39 1457.8 Q2327.39 1455.97 2326.1 1454.68 Q2324.83 1453.38 2323 1453.38 M2323 1450.39 Q2324.48 1450.39 2325.84 1450.97 Q2327.21 1451.53 2328.2 1452.59 Q2329.27 1453.64 2329.8 1454.96 Q2330.33 1456.27 2330.33 1457.8 Q2330.33 1460.86 2328.18 1462.99 Q2326.05 1465.09 2322.95 1465.09 Q2319.83 1465.09 2317.74 1463.01 Q2315.66 1460.93 2315.66 1457.8 Q2315.66 1454.7 2317.79 1452.55 Q2319.92 1450.39 2323 1450.39 Z" fill="#ffffff" fill-rule="evenodd" fill-opacity="1" /><path clip-path="url(#clip440)" d="M2927.16 1481.64 L2943.48 1481.64 L2943.48 1485.58 L2921.54 1485.58 L2921.54 1481.64 Q2924.2 1478.89 2928.78 1474.26 Q2933.39 1469.61 2934.57 1468.27 Q2936.82 1465.74 2937.7 1464.01 Q2938.6 1462.25 2938.6 1460.56 Q2938.6 1457.8 2936.65 1456.07 Q2934.73 1454.33 2931.63 1454.33 Q2929.43 1454.33 2926.98 1455.09 Q2924.55 1455.86 2921.77 1457.41 L2921.77 1452.69 Q2924.59 1451.55 2927.05 1450.97 Q2929.5 1450.39 2931.54 1450.39 Q2936.91 1450.39 2940.1 1453.08 Q2943.3 1455.77 2943.3 1460.26 Q2943.3 1462.39 2942.49 1464.31 Q2941.7 1466.2 2939.59 1468.8 Q2939.01 1469.47 2935.91 1472.69 Q2932.81 1475.88 2927.16 1481.64 Z" fill="#ffffff" fill-rule="evenodd" fill-opacity="1" /><path clip-path="url(#clip440)" d="M2963.3 1454.1 Q2959.69 1454.1 2957.86 1457.66 Q2956.05 1461.2 2956.05 1468.33 Q2956.05 1475.44 2957.86 1479.01 Q2959.69 1482.55 2963.3 1482.55 Q2966.93 1482.55 2968.74 1479.01 Q2970.57 1475.44 2970.57 1468.33 Q2970.57 1461.2 2968.74 1457.66 Q2966.93 1454.1 2963.3 1454.1 M2963.3 1450.39 Q2969.11 1450.39 2972.16 1455 Q2975.24 1459.58 2975.24 1468.33 Q2975.24 1477.06 2972.16 1481.67 Q2969.11 1486.25 2963.3 1486.25 Q2957.49 1486.25 2954.41 1481.67 Q2951.35 1477.06 2951.35 1468.33 Q2951.35 1459.58 2954.41 1455 Q2957.49 1450.39 2963.3 1450.39 Z" fill="#ffffff" fill-rule="evenodd" fill-opacity="1" /><path clip-path="url(#clip440)" d="M2990.24 1453.38 Q2988.39 1453.38 2987.12 1454.68 Q2985.84 1455.95 2985.84 1457.8 Q2985.84 1459.63 2987.12 1460.9 Q2988.39 1462.15 2990.24 1462.15 Q2992.09 1462.15 2993.37 1460.9 Q2994.64 1459.63 2994.64 1457.8 Q2994.64 1455.97 2993.34 1454.68 Q2992.07 1453.38 2990.24 1453.38 M2990.24 1450.39 Q2991.72 1450.39 2993.09 1450.97 Q2994.45 1451.53 2995.45 1452.59 Q2996.51 1453.64 2997.05 1454.96 Q2997.58 1456.27 2997.58 1457.8 Q2997.58 1460.86 2995.43 1462.99 Q2993.3 1465.09 2990.19 1465.09 Q2987.07 1465.09 2984.99 1463.01 Q2982.9 1460.93 2982.9 1457.8 Q2982.9 1454.7 2985.03 1452.55 Q2987.16 1450.39 2990.24 1450.39 Z" fill="#ffffff" fill-rule="evenodd" fill-opacity="1" /><path clip-path="url(#clip440)" d="M1204.25 1451.02 L1226.47 1451.02 L1226.47 1453.01 L1213.92 1485.58 L1209.04 1485.58 L1220.85 1454.96 L1204.25 1454.96 L1204.25 1451.02 Z" fill="#ffffff" fill-rule="evenodd" fill-opacity="1" /><path clip-path="url(#clip440)" d="M1242.37 1453.38 Q1240.52 1453.38 1239.25 1454.68 Q1237.97 1455.95 1237.97 1457.8 Q1237.97 1459.63 1239.25 1460.9 Q1240.52 1462.15 1242.37 1462.15 Q1244.22 1462.15 1245.5 1460.9 Q1246.77 1459.63 1246.77 1457.8 Q1246.77 1455.97 1245.47 1454.68 Q1244.2 1453.38 1242.37 1453.38 M1242.37 1450.39 Q1243.85 1450.39 1245.22 1450.97 Q1246.59 1451.53 1247.58 1452.59 Q1248.65 1453.64 1249.18 1454.96 Q1249.71 1456.27 1249.71 1457.8 Q1249.71 1460.86 1247.56 1462.99 Q1245.43 1465.09 1242.33 1465.09 Q1239.2 1465.09 1237.12 1463.01 Q1235.04 1460.93 1235.04 1457.8 Q1235.04 1454.7 1237.16 1452.55 Q1239.29 1450.39 1242.37 1450.39 Z" fill="#ffffff" fill-rule="evenodd" fill-opacity="1" /><path clip-path="url(#clip440)" d="M893.894 1520.52 L903.475 1520.52 L915.601 1552.86 L927.792 1520.52 L937.372 1520.52 L937.372 1568.04 L931.102 1568.04 L931.102 1526.32 L918.848 1558.91 L912.387 1558.91 L900.133 1526.32 L900.133 1568.04 L893.894 1568.04 L893.894 1520.52 Z" fill="#ffffff" fill-rule="evenodd" fill-opacity="1" /><path clip-path="url(#clip440)" d="M966.081 1550.12 Q958.984 1550.12 956.246 1551.75 Q953.509 1553.37 953.509 1557.29 Q953.509 1560.4 955.546 1562.25 Q957.615 1564.07 961.148 1564.07 Q966.018 1564.07 968.946 1560.63 Q971.906 1557.16 971.906 1551.43 L971.906 1550.12 L966.081 1550.12 M977.762 1547.71 L977.762 1568.04 L971.906 1568.04 L971.906 1562.63 Q969.901 1565.88 966.909 1567.44 Q963.917 1568.97 959.588 1568.97 Q954.114 1568.97 950.867 1565.91 Q947.653 1562.82 947.653 1557.67 Q947.653 1551.65 951.663 1548.6 Q955.705 1545.54 963.694 1545.54 L971.906 1545.54 L971.906 1544.97 Q971.906 1540.93 969.232 1538.73 Q966.591 1536.5 961.784 1536.5 Q958.729 1536.5 955.833 1537.23 Q952.936 1537.97 950.263 1539.43 L950.263 1534.02 Q953.477 1532.78 956.501 1532.17 Q959.525 1531.54 962.389 1531.54 Q970.124 1531.54 973.943 1535.55 Q977.762 1539.56 977.762 1547.71 Z" fill="#ffffff" fill-rule="evenodd" fill-opacity="1" /><path clip-path="url(#clip440)" d="M1019.46 1532.4 L1006.57 1549.74 L1020.13 1568.04 L1013.22 1568.04 L1002.84 1554.04 L992.467 1568.04 L985.56 1568.04 L999.406 1549.39 L986.738 1532.4 L993.645 1532.4 L1003.1 1545.1 L1012.55 1532.4 L1019.46 1532.4 Z" fill="#ffffff" fill-rule="evenodd" fill-opacity="1" /><path clip-path="url(#clip440)" d="M1028.4 1532.4 L1034.26 1532.4 L1034.26 1568.04 L1028.4 1568.04 L1028.4 1532.4 M1028.4 1518.52 L1034.26 1518.52 L1034.26 1525.93 L1028.4 1525.93 L1028.4 1518.52 Z" fill="#ffffff" fill-rule="evenodd" fill-opacity="1" /><path clip-path="url(#clip440)" d="M1074.27 1539.24 Q1076.46 1535.29 1079.52 1533.41 Q1082.57 1531.54 1086.71 1531.54 Q1092.28 1531.54 1095.31 1535.45 Q1098.33 1539.33 1098.33 1546.53 L1098.33 1568.04 L1092.44 1568.04 L1092.44 1546.72 Q1092.44 1541.59 1090.63 1539.11 Q1088.81 1536.63 1085.09 1536.63 Q1080.54 1536.63 1077.89 1539.65 Q1075.25 1542.68 1075.25 1547.9 L1075.25 1568.04 L1069.36 1568.04 L1069.36 1546.72 Q1069.36 1541.56 1067.55 1539.11 Q1065.74 1536.63 1061.95 1536.63 Q1057.46 1536.63 1054.82 1539.68 Q1052.18 1542.71 1052.18 1547.9 L1052.18 1568.04 L1046.29 1568.04 L1046.29 1532.4 L1052.18 1532.4 L1052.18 1537.93 Q1054.18 1534.66 1056.98 1533.1 Q1059.78 1531.54 1063.64 1531.54 Q1067.52 1531.54 1070.22 1533.51 Q1072.96 1535.48 1074.27 1539.24 Z" fill="#ffffff" fill-rule="evenodd" fill-opacity="1" /><path clip-path="url(#clip440)" d="M1109.41 1553.98 L1109.41 1532.4 L1115.26 1532.4 L1115.26 1553.75 Q1115.26 1558.81 1117.24 1561.36 Q1119.21 1563.87 1123.16 1563.87 Q1127.9 1563.87 1130.63 1560.85 Q1133.4 1557.83 1133.4 1552.61 L1133.4 1532.4 L1139.26 1532.4 L1139.26 1568.04 L1133.4 1568.04 L1133.4 1562.57 Q1131.27 1565.82 1128.44 1567.41 Q1125.64 1568.97 1121.91 1568.97 Q1115.77 1568.97 1112.59 1565.15 Q1109.41 1561.33 1109.41 1553.98 M1124.14 1531.54 L1124.14 1531.54 Z" fill="#ffffff" fill-rule="evenodd" fill-opacity="1" /><path clip-path="url(#clip440)" d="M1179.08 1539.24 Q1181.27 1535.29 1184.33 1533.41 Q1187.39 1531.54 1191.52 1531.54 Q1197.09 1531.54 1200.12 1535.45 Q1203.14 1539.33 1203.14 1546.53 L1203.14 1568.04 L1197.25 1568.04 L1197.25 1546.72 Q1197.25 1541.59 1195.44 1539.11 Q1193.62 1536.63 1189.9 1536.63 Q1185.35 1536.63 1182.71 1539.65 Q1180.06 1542.68 1180.06 1547.9 L1180.06 1568.04 L1174.18 1568.04 L1174.18 1546.72 Q1174.18 1541.56 1172.36 1539.11 Q1170.55 1536.63 1166.76 1536.63 Q1162.27 1536.63 1159.63 1539.68 Q1156.99 1542.71 1156.99 1547.9 L1156.99 1568.04 L1151.1 1568.04 L1151.1 1532.4 L1156.99 1532.4 L1156.99 1537.93 Q1158.99 1534.66 1161.79 1533.1 Q1164.6 1531.54 1168.45 1531.54 Q1172.33 1531.54 1175.04 1533.51 Q1177.77 1535.48 1179.08 1539.24 Z" fill="#ffffff" fill-rule="evenodd" fill-opacity="1" /><path clip-path="url(#clip440)" d="M1229.21 1520.52 L1269.41 1520.52 L1269.41 1525.93 L1252.54 1525.93 L1252.54 1568.04 L1246.08 1568.04 L1246.08 1525.93 L1229.21 1525.93 L1229.21 1520.52 Z" fill="#ffffff" fill-rule="evenodd" fill-opacity="1" /><path clip-path="url(#clip440)" d="M1287.87 1568.04 L1269.73 1520.52 L1276.44 1520.52 L1291.5 1560.53 L1306.58 1520.52 L1313.27 1520.52 L1295.16 1568.04 L1287.87 1568.04 Z" fill="#ffffff" fill-rule="evenodd" fill-opacity="1" /><path clip-path="url(#clip440)" d="M1355.79 1524.18 L1355.79 1530.96 Q1352.54 1527.94 1348.85 1526.44 Q1345.19 1524.95 1341.05 1524.95 Q1332.91 1524.95 1328.58 1529.95 Q1324.25 1534.91 1324.25 1544.33 Q1324.25 1553.72 1328.58 1558.72 Q1332.91 1563.68 1341.05 1563.68 Q1345.19 1563.68 1348.85 1562.19 Q1352.54 1560.69 1355.79 1557.67 L1355.79 1564.38 Q1352.42 1566.68 1348.63 1567.82 Q1344.87 1568.97 1340.67 1568.97 Q1329.88 1568.97 1323.67 1562.38 Q1317.47 1555.76 1317.47 1544.33 Q1317.47 1532.87 1323.67 1526.28 Q1329.88 1519.66 1340.67 1519.66 Q1344.94 1519.66 1348.69 1520.81 Q1352.48 1521.92 1355.79 1524.18 Z" fill="#ffffff" fill-rule="evenodd" fill-opacity="1" /><path clip-path="url(#clip440)" d="M1392.87 1525.81 L1392.87 1562.76 L1400.64 1562.76 Q1410.47 1562.76 1415.02 1558.3 Q1419.61 1553.85 1419.61 1544.24 Q1419.61 1534.69 1415.02 1530.26 Q1410.47 1525.81 1400.64 1525.81 L1392.87 1525.81 M1386.44 1520.52 L1399.65 1520.52 Q1413.46 1520.52 1419.92 1526.28 Q1426.39 1532.01 1426.39 1544.24 Q1426.39 1556.52 1419.89 1562.28 Q1413.4 1568.04 1399.65 1568.04 L1386.44 1568.04 L1386.44 1520.52 Z" fill="#ffffff" fill-rule="evenodd" fill-opacity="1" /><path clip-path="url(#clip440)" d="M1466.87 1548.76 L1466.87 1551.62 L1439.94 1551.62 Q1440.33 1557.67 1443.57 1560.85 Q1446.85 1564 1452.68 1564 Q1456.05 1564 1459.2 1563.17 Q1462.38 1562.35 1465.5 1560.69 L1465.5 1566.23 Q1462.35 1567.57 1459.04 1568.27 Q1455.73 1568.97 1452.33 1568.97 Q1443.8 1568.97 1438.8 1564 Q1433.83 1559.04 1433.83 1550.57 Q1433.83 1541.82 1438.54 1536.69 Q1443.29 1531.54 1451.31 1531.54 Q1458.5 1531.54 1462.67 1536.18 Q1466.87 1540.8 1466.87 1548.76 M1461.02 1547.04 Q1460.95 1542.23 1458.31 1539.37 Q1455.7 1536.5 1451.37 1536.5 Q1446.47 1536.5 1443.51 1539.27 Q1440.58 1542.04 1440.14 1547.07 L1461.02 1547.04 Z" fill="#ffffff" fill-rule="evenodd" fill-opacity="1" /><path clip-path="url(#clip440)" d="M1494.53 1518.52 L1494.53 1523.39 L1488.93 1523.39 Q1485.78 1523.39 1484.54 1524.66 Q1483.33 1525.93 1483.33 1529.24 L1483.33 1532.4 L1492.97 1532.4 L1492.97 1536.95 L1483.33 1536.95 L1483.33 1568.04 L1477.44 1568.04 L1477.44 1536.95 L1471.84 1536.95 L1471.84 1532.4 L1477.44 1532.4 L1477.44 1529.91 Q1477.44 1523.96 1480.21 1521.26 Q1482.98 1518.52 1488.99 1518.52 L1494.53 1518.52 Z" fill="#ffffff" fill-rule="evenodd" fill-opacity="1" /><path clip-path="url(#clip440)" d="M1499.43 1518.52 L1505.29 1518.52 L1505.29 1568.04 L1499.43 1568.04 L1499.43 1518.52 Z" fill="#ffffff" fill-rule="evenodd" fill-opacity="1" /><path clip-path="url(#clip440)" d="M1548.03 1548.76 L1548.03 1551.62 L1521.11 1551.62 Q1521.49 1557.67 1524.74 1560.85 Q1528.01 1564 1533.84 1564 Q1537.21 1564 1540.36 1563.17 Q1543.55 1562.35 1546.67 1560.69 L1546.67 1566.23 Q1543.51 1567.57 1540.2 1568.27 Q1536.89 1568.97 1533.49 1568.97 Q1524.96 1568.97 1519.96 1564 Q1515 1559.04 1515 1550.57 Q1515 1541.82 1519.71 1536.69 Q1524.45 1531.54 1532.47 1531.54 Q1539.66 1531.54 1543.83 1536.18 Q1548.03 1540.8 1548.03 1548.76 M1542.18 1547.04 Q1542.11 1542.23 1539.47 1539.37 Q1536.86 1536.5 1532.53 1536.5 Q1527.63 1536.5 1524.67 1539.27 Q1521.74 1542.04 1521.3 1547.07 L1542.18 1547.04 Z" fill="#ffffff" fill-rule="evenodd" fill-opacity="1" /><path clip-path="url(#clip440)" d="M1583.3 1533.76 L1583.3 1539.24 Q1580.82 1537.87 1578.3 1537.2 Q1575.82 1536.5 1573.27 1536.5 Q1567.58 1536.5 1564.43 1540.13 Q1561.27 1543.73 1561.27 1550.25 Q1561.27 1556.78 1564.43 1560.4 Q1567.58 1564 1573.27 1564 Q1575.82 1564 1578.3 1563.33 Q1580.82 1562.63 1583.3 1561.26 L1583.3 1566.68 Q1580.85 1567.82 1578.21 1568.39 Q1575.6 1568.97 1572.64 1568.97 Q1564.59 1568.97 1559.84 1563.91 Q1555.1 1558.85 1555.1 1550.25 Q1555.1 1541.53 1559.87 1536.53 Q1564.68 1531.54 1573.02 1531.54 Q1575.73 1531.54 1578.3 1532.11 Q1580.88 1532.65 1583.3 1533.76 Z" fill="#ffffff" fill-rule="evenodd" fill-opacity="1" /><path clip-path="url(#clip440)" d="M1599.28 1522.27 L1599.28 1532.4 L1611.34 1532.4 L1611.34 1536.95 L1599.28 1536.95 L1599.28 1556.3 Q1599.28 1560.66 1600.46 1561.9 Q1601.67 1563.14 1605.33 1563.14 L1611.34 1563.14 L1611.34 1568.04 L1605.33 1568.04 Q1598.55 1568.04 1595.97 1565.53 Q1593.39 1562.98 1593.39 1556.3 L1593.39 1536.95 L1589.09 1536.95 L1589.09 1532.4 L1593.39 1532.4 L1593.39 1522.27 L1599.28 1522.27 Z" fill="#ffffff" fill-rule="evenodd" fill-opacity="1" /><path clip-path="url(#clip440)" d="M1619.04 1532.4 L1624.9 1532.4 L1624.9 1568.04 L1619.04 1568.04 L1619.04 1532.4 M1619.04 1518.52 L1624.9 1518.52 L1624.9 1525.93 L1619.04 1525.93 L1619.04 1518.52 Z" fill="#ffffff" fill-rule="evenodd" fill-opacity="1" /><path clip-path="url(#clip440)" d="M1650.97 1536.5 Q1646.26 1536.5 1643.52 1540.19 Q1640.78 1543.85 1640.78 1550.25 Q1640.78 1556.65 1643.49 1560.34 Q1646.23 1564 1650.97 1564 Q1655.65 1564 1658.38 1560.31 Q1661.12 1556.62 1661.12 1550.25 Q1661.12 1543.92 1658.38 1540.23 Q1655.65 1536.5 1650.97 1536.5 M1650.97 1531.54 Q1658.61 1531.54 1662.97 1536.5 Q1667.33 1541.47 1667.33 1550.25 Q1667.33 1559 1662.97 1564 Q1658.61 1568.97 1650.97 1568.97 Q1643.3 1568.97 1638.94 1564 Q1634.61 1559 1634.61 1550.25 Q1634.61 1541.47 1638.94 1536.5 Q1643.3 1531.54 1650.97 1531.54 Z" fill="#ffffff" fill-rule="evenodd" fill-opacity="1" /><path clip-path="url(#clip440)" d="M1706.67 1546.53 L1706.67 1568.04 L1700.81 1568.04 L1700.81 1546.72 Q1700.81 1541.66 1698.84 1539.14 Q1696.86 1536.63 1692.92 1536.63 Q1688.18 1536.63 1685.44 1539.65 Q1682.7 1542.68 1682.7 1547.9 L1682.7 1568.04 L1676.81 1568.04 L1676.81 1532.4 L1682.7 1532.4 L1682.7 1537.93 Q1684.8 1534.72 1687.63 1533.13 Q1690.5 1531.54 1694.22 1531.54 Q1700.37 1531.54 1703.52 1535.36 Q1706.67 1539.14 1706.67 1546.53 Z" fill="#ffffff" fill-rule="evenodd" fill-opacity="1" /><polyline clip-path="url(#clip442)" style="stroke:#adb2b7; stroke-linecap:butt; stroke-linejoin:round; stroke-width:2; stroke-opacity:0.1; fill:none" points="
  247.806,1403.89 2352.76,1403.89 
  "/>
<polyline clip-path="url(#clip442)" style="stroke:#adb2b7; stroke-linecap:butt; stroke-linejoin:round; stroke-width:2; stroke-opacity:0.1; fill:none" points="
  247.806,1202.63 2352.76,1202.63 
  "/>
<polyline clip-path="url(#clip442)" style="stroke:#adb2b7; stroke-linecap:butt; stroke-linejoin:round; stroke-width:2; stroke-opacity:0.1; fill:none" points="
  247.806,1001.37 2352.76,1001.37 
  "/>
<polyline clip-path="url(#clip442)" style="stroke:#adb2b7; stroke-linecap:butt; stroke-linejoin:round; stroke-width:2; stroke-opacity:0.1; fill:none" points="
  247.806,800.113 2352.76,800.113 
  "/>
<polyline clip-path="url(#clip442)" style="stroke:#adb2b7; stroke-linecap:butt; stroke-linejoin:round; stroke-width:2; stroke-opacity:0.1; fill:none" points="
  247.806,598.855 2352.76,598.855 
  "/>
<polyline clip-path="url(#clip442)" style="stroke:#adb2b7; stroke-linecap:butt; stroke-linejoin:round; stroke-width:2; stroke-opacity:0.1; fill:none" points="
  247.806,397.596 2352.76,397.596 
  "/>
<polyline clip-path="url(#clip442)" style="stroke:#adb2b7; stroke-linecap:butt; stroke-linejoin:round; stroke-width:2; stroke-opacity:0.1; fill:none" points="
  247.806,196.337 2352.76,196.337 
  "/>
<polyline clip-path="url(#clip440)" style="stroke:#adb2b7; stroke-linecap:butt; stroke-linejoin:round; stroke-width:4; stroke-opacity:1; fill:none" points="
  247.806,1423.18 247.806,183.952 
  "/>
<polyline clip-path="url(#clip440)" style="stroke:#adb2b7; stroke-linecap:butt; stroke-linejoin:round; stroke-width:4; stroke-opacity:1; fill:none" points="
  247.806,1403.89 266.704,1403.89 
  "/>
<polyline clip-path="url(#clip440)" style="stroke:#adb2b7; stroke-linecap:butt; stroke-linejoin:round; stroke-width:4; stroke-opacity:1; fill:none" points="
  247.806,1202.63 266.704,1202.63 
  "/>
<polyline clip-path="url(#clip440)" style="stroke:#adb2b7; stroke-linecap:butt; stroke-linejoin:round; stroke-width:4; stroke-opacity:1; fill:none" points="
  247.806,1001.37 266.704,1001.37 
  "/>
<polyline clip-path="url(#clip440)" style="stroke:#adb2b7; stroke-linecap:butt; stroke-linejoin:round; stroke-width:4; stroke-opacity:1; fill:none" points="
  247.806,800.113 266.704,800.113 
  "/>
<polyline clip-path="url(#clip440)" style="stroke:#adb2b7; stroke-linecap:butt; stroke-linejoin:round; stroke-width:4; stroke-opacity:1; fill:none" points="
  247.806,598.855 266.704,598.855 
  "/>
<polyline clip-path="url(#clip440)" style="stroke:#adb2b7; stroke-linecap:butt; stroke-linejoin:round; stroke-width:4; stroke-opacity:1; fill:none" points="
  247.806,397.596 266.704,397.596 
  "/>
<polyline clip-path="url(#clip440)" style="stroke:#adb2b7; stroke-linecap:butt; stroke-linejoin:round; stroke-width:4; stroke-opacity:1; fill:none" points="
  247.806,196.337 266.704,196.337 
  "/>
<path clip-path="url(#clip440)" d="M154.283 1389.69 Q150.672 1389.69 148.843 1393.25 Q147.038 1396.79 147.038 1403.92 Q147.038 1411.03 148.843 1414.6 Q150.672 1418.14 154.283 1418.14 Q157.917 1418.14 159.723 1414.6 Q161.552 1411.03 161.552 1403.92 Q161.552 1396.79 159.723 1393.25 Q157.917 1389.69 154.283 1389.69 M154.283 1385.98 Q160.093 1385.98 163.149 1390.59 Q166.227 1395.17 166.227 1403.92 Q166.227 1412.65 163.149 1417.26 Q160.093 1421.84 154.283 1421.84 Q148.473 1421.84 145.394 1417.26 Q142.339 1412.65 142.339 1403.92 Q142.339 1395.17 145.394 1390.59 Q148.473 1385.98 154.283 1385.98 Z" fill="#ffffff" fill-rule="evenodd" fill-opacity="1" /><path clip-path="url(#clip440)" d="M203.843 1405.96 Q201.829 1405.96 200.672 1407.67 Q199.537 1409.39 199.537 1412.44 Q199.537 1415.45 200.672 1417.19 Q201.829 1418.9 203.843 1418.9 Q205.811 1418.9 206.945 1417.19 Q208.102 1415.45 208.102 1412.44 Q208.102 1409.41 206.945 1407.7 Q205.811 1405.96 203.843 1405.96 M203.843 1403.02 Q207.5 1403.02 209.653 1405.57 Q211.806 1408.11 211.806 1412.44 Q211.806 1416.77 209.63 1419.32 Q207.477 1421.84 203.843 1421.84 Q200.139 1421.84 197.987 1419.32 Q195.834 1416.77 195.834 1412.44 Q195.834 1408.09 197.987 1405.57 Q200.162 1403.02 203.843 1403.02 M179.954 1388.92 Q177.964 1388.92 176.806 1390.66 Q175.672 1392.37 175.672 1395.38 Q175.672 1398.44 176.806 1400.15 Q177.94 1401.86 179.954 1401.86 Q181.968 1401.86 183.102 1400.15 Q184.26 1398.44 184.26 1395.38 Q184.26 1392.4 183.102 1390.66 Q181.945 1388.92 179.954 1388.92 M200.857 1385.98 L204.561 1385.98 L182.94 1421.84 L179.237 1421.84 L200.857 1385.98 M179.954 1385.98 Q183.612 1385.98 185.788 1388.53 Q187.963 1391.05 187.963 1395.38 Q187.963 1399.76 185.788 1402.28 Q183.635 1404.8 179.954 1404.8 Q176.274 1404.8 174.121 1402.28 Q171.991 1399.73 171.991 1395.38 Q171.991 1391.08 174.144 1388.53 Q176.297 1385.98 179.954 1385.98 Z" fill="#ffffff" fill-rule="evenodd" fill-opacity="1" /><path clip-path="url(#clip440)" d="M148.311 1215.98 L164.63 1215.98 L164.63 1219.91 L142.686 1219.91 L142.686 1215.98 Q145.348 1213.22 149.931 1208.59 Q154.538 1203.94 155.718 1202.6 Q157.964 1200.07 158.843 1198.34 Q159.746 1196.58 159.746 1194.89 Q159.746 1192.13 157.802 1190.4 Q155.88 1188.66 152.778 1188.66 Q150.579 1188.66 148.126 1189.42 Q145.695 1190.19 142.917 1191.74 L142.917 1187.02 Q145.741 1185.88 148.195 1185.3 Q150.649 1184.73 152.686 1184.73 Q158.056 1184.73 161.251 1187.41 Q164.445 1190.1 164.445 1194.59 Q164.445 1196.72 163.635 1198.64 Q162.848 1200.54 160.741 1203.13 Q160.163 1203.8 157.061 1207.02 Q153.959 1210.21 148.311 1215.98 Z" fill="#ffffff" fill-rule="evenodd" fill-opacity="1" /><path clip-path="url(#clip440)" d="M203.843 1204.7 Q201.829 1204.7 200.672 1206.42 Q199.537 1208.13 199.537 1211.18 Q199.537 1214.19 200.672 1215.93 Q201.829 1217.64 203.843 1217.64 Q205.811 1217.64 206.945 1215.93 Q208.102 1214.19 208.102 1211.18 Q208.102 1208.15 206.945 1206.44 Q205.811 1204.7 203.843 1204.7 M203.843 1201.76 Q207.5 1201.76 209.653 1204.31 Q211.806 1206.86 211.806 1211.18 Q211.806 1215.51 209.63 1218.06 Q207.477 1220.58 203.843 1220.58 Q200.139 1220.58 197.987 1218.06 Q195.834 1215.51 195.834 1211.18 Q195.834 1206.83 197.987 1204.31 Q200.162 1201.76 203.843 1201.76 M179.954 1187.67 Q177.964 1187.67 176.806 1189.4 Q175.672 1191.11 175.672 1194.12 Q175.672 1197.18 176.806 1198.89 Q177.94 1200.61 179.954 1200.61 Q181.968 1200.61 183.102 1198.89 Q184.26 1197.18 184.26 1194.12 Q184.26 1191.14 183.102 1189.4 Q181.945 1187.67 179.954 1187.67 M200.857 1184.73 L204.561 1184.73 L182.94 1220.58 L179.237 1220.58 L200.857 1184.73 M179.954 1184.73 Q183.612 1184.73 185.788 1187.27 Q187.963 1189.8 187.963 1194.12 Q187.963 1198.5 185.788 1201.02 Q183.635 1203.55 179.954 1203.55 Q176.274 1203.55 174.121 1201.02 Q171.991 1198.48 171.991 1194.12 Q171.991 1189.82 174.144 1187.27 Q176.297 1184.73 179.954 1184.73 Z" fill="#ffffff" fill-rule="evenodd" fill-opacity="1" /><path clip-path="url(#clip440)" d="M157.13 988.166 L145.325 1006.62 L157.13 1006.62 L157.13 988.166 M155.903 984.092 L161.783 984.092 L161.783 1006.62 L166.714 1006.62 L166.714 1010.5 L161.783 1010.5 L161.783 1018.65 L157.13 1018.65 L157.13 1010.5 L141.529 1010.5 L141.529 1005.99 L155.903 984.092 Z" fill="#ffffff" fill-rule="evenodd" fill-opacity="1" /><path clip-path="url(#clip440)" d="M203.843 1003.44 Q201.829 1003.44 200.672 1005.16 Q199.537 1006.87 199.537 1009.93 Q199.537 1012.93 200.672 1014.67 Q201.829 1016.38 203.843 1016.38 Q205.811 1016.38 206.945 1014.67 Q208.102 1012.93 208.102 1009.93 Q208.102 1006.89 206.945 1005.18 Q205.811 1003.44 203.843 1003.44 M203.843 1000.5 Q207.5 1000.5 209.653 1003.05 Q211.806 1005.6 211.806 1009.93 Q211.806 1014.25 209.63 1016.8 Q207.477 1019.32 203.843 1019.32 Q200.139 1019.32 197.987 1016.8 Q195.834 1014.25 195.834 1009.93 Q195.834 1005.57 197.987 1003.05 Q200.162 1000.5 203.843 1000.5 M179.954 986.407 Q177.964 986.407 176.806 988.143 Q175.672 989.856 175.672 992.865 Q175.672 995.921 176.806 997.634 Q177.94 999.347 179.954 999.347 Q181.968 999.347 183.102 997.634 Q184.26 995.921 184.26 992.865 Q184.26 989.879 183.102 988.143 Q181.945 986.407 179.954 986.407 M200.857 983.467 L204.561 983.467 L182.94 1019.32 L179.237 1019.32 L200.857 983.467 M179.954 983.467 Q183.612 983.467 185.788 986.013 Q187.963 988.536 187.963 992.865 Q187.963 997.24 185.788 999.763 Q183.635 1002.29 179.954 1002.29 Q176.274 1002.29 174.121 999.763 Q171.991 997.217 171.991 992.865 Q171.991 988.56 174.144 986.013 Q176.297 983.467 179.954 983.467 Z" fill="#ffffff" fill-rule="evenodd" fill-opacity="1" /><path clip-path="url(#clip440)" d="M154.862 798.25 Q151.714 798.25 149.862 800.403 Q148.033 802.555 148.033 806.305 Q148.033 810.032 149.862 812.208 Q151.714 814.361 154.862 814.361 Q158.01 814.361 159.839 812.208 Q161.69 810.032 161.69 806.305 Q161.69 802.555 159.839 800.403 Q158.01 798.25 154.862 798.25 M164.144 783.597 L164.144 787.856 Q162.385 787.023 160.579 786.583 Q158.797 786.143 157.038 786.143 Q152.408 786.143 149.954 789.268 Q147.524 792.393 147.177 798.713 Q148.542 796.699 150.603 795.634 Q152.663 794.546 155.14 794.546 Q160.348 794.546 163.357 797.717 Q166.39 800.866 166.39 806.305 Q166.39 811.629 163.241 814.847 Q160.093 818.065 154.862 818.065 Q148.866 818.065 145.695 813.481 Q142.524 808.875 142.524 800.148 Q142.524 791.954 146.413 787.093 Q150.302 782.208 156.853 782.208 Q158.612 782.208 160.394 782.556 Q162.2 782.903 164.144 783.597 Z" fill="#ffffff" fill-rule="evenodd" fill-opacity="1" /><path clip-path="url(#clip440)" d="M203.843 802.185 Q201.829 802.185 200.672 803.898 Q199.537 805.611 199.537 808.666 Q199.537 811.676 200.672 813.412 Q201.829 815.125 203.843 815.125 Q205.811 815.125 206.945 813.412 Q208.102 811.676 208.102 808.666 Q208.102 805.634 206.945 803.921 Q205.811 802.185 203.843 802.185 M203.843 799.245 Q207.5 799.245 209.653 801.792 Q211.806 804.338 211.806 808.666 Q211.806 812.995 209.63 815.541 Q207.477 818.065 203.843 818.065 Q200.139 818.065 197.987 815.541 Q195.834 812.995 195.834 808.666 Q195.834 804.315 197.987 801.792 Q200.162 799.245 203.843 799.245 M179.954 785.148 Q177.964 785.148 176.806 786.884 Q175.672 788.597 175.672 791.606 Q175.672 794.662 176.806 796.375 Q177.94 798.088 179.954 798.088 Q181.968 798.088 183.102 796.375 Q184.26 794.662 184.26 791.606 Q184.26 788.62 183.102 786.884 Q181.945 785.148 179.954 785.148 M200.857 782.208 L204.561 782.208 L182.94 818.065 L179.237 818.065 L200.857 782.208 M179.954 782.208 Q183.612 782.208 185.788 784.755 Q187.963 787.278 187.963 791.606 Q187.963 795.981 185.788 798.505 Q183.635 801.028 179.954 801.028 Q176.274 801.028 174.121 798.505 Q171.991 795.958 171.991 791.606 Q171.991 787.301 174.144 784.755 Q176.297 782.208 179.954 782.208 Z" fill="#ffffff" fill-rule="evenodd" fill-opacity="1" /><path clip-path="url(#clip440)" d="M154.283 599.723 Q150.95 599.723 149.028 601.505 Q147.13 603.287 147.13 606.412 Q147.13 609.537 149.028 611.32 Q150.95 613.102 154.283 613.102 Q157.616 613.102 159.538 611.32 Q161.459 609.514 161.459 606.412 Q161.459 603.287 159.538 601.505 Q157.64 599.723 154.283 599.723 M149.607 597.732 Q146.598 596.991 144.908 594.931 Q143.241 592.871 143.241 589.908 Q143.241 585.764 146.181 583.357 Q149.144 580.95 154.283 580.95 Q159.445 580.95 162.385 583.357 Q165.325 585.764 165.325 589.908 Q165.325 592.871 163.635 594.931 Q161.968 596.991 158.982 597.732 Q162.362 598.519 164.237 600.811 Q166.135 603.102 166.135 606.412 Q166.135 611.436 163.056 614.121 Q160.001 616.806 154.283 616.806 Q148.566 616.806 145.487 614.121 Q142.431 611.436 142.431 606.412 Q142.431 603.102 144.329 600.811 Q146.228 598.519 149.607 597.732 M147.894 590.348 Q147.894 593.033 149.561 594.537 Q151.251 596.042 154.283 596.042 Q157.292 596.042 158.982 594.537 Q160.695 593.033 160.695 590.348 Q160.695 587.663 158.982 586.158 Q157.292 584.653 154.283 584.653 Q151.251 584.653 149.561 586.158 Q147.894 587.663 147.894 590.348 Z" fill="#ffffff" fill-rule="evenodd" fill-opacity="1" /><path clip-path="url(#clip440)" d="M203.843 600.926 Q201.829 600.926 200.672 602.639 Q199.537 604.352 199.537 607.408 Q199.537 610.417 200.672 612.153 Q201.829 613.866 203.843 613.866 Q205.811 613.866 206.945 612.153 Q208.102 610.417 208.102 607.408 Q208.102 604.375 206.945 602.662 Q205.811 600.926 203.843 600.926 M203.843 597.987 Q207.5 597.987 209.653 600.533 Q211.806 603.079 211.806 607.408 Q211.806 611.736 209.63 614.283 Q207.477 616.806 203.843 616.806 Q200.139 616.806 197.987 614.283 Q195.834 611.736 195.834 607.408 Q195.834 603.056 197.987 600.533 Q200.162 597.987 203.843 597.987 M179.954 583.889 Q177.964 583.889 176.806 585.626 Q175.672 587.338 175.672 590.348 Q175.672 593.403 176.806 595.116 Q177.94 596.829 179.954 596.829 Q181.968 596.829 183.102 595.116 Q184.26 593.403 184.26 590.348 Q184.26 587.362 183.102 585.626 Q181.945 583.889 179.954 583.889 M200.857 580.95 L204.561 580.95 L182.94 616.806 L179.237 616.806 L200.857 580.95 M179.954 580.95 Q183.612 580.95 185.788 583.496 Q187.963 586.019 187.963 590.348 Q187.963 594.723 185.788 597.246 Q183.635 599.769 179.954 599.769 Q176.274 599.769 174.121 597.246 Q171.991 594.7 171.991 590.348 Q171.991 586.042 174.144 583.496 Q176.297 580.95 179.954 580.95 Z" fill="#ffffff" fill-rule="evenodd" fill-opacity="1" /><path clip-path="url(#clip440)" d="M114.931 410.941 L122.57 410.941 L122.57 384.575 L114.26 386.242 L114.26 381.983 L122.524 380.316 L127.2 380.316 L127.2 410.941 L134.839 410.941 L134.839 414.876 L114.931 414.876 L114.931 410.941 Z" fill="#ffffff" fill-rule="evenodd" fill-opacity="1" /><path clip-path="url(#clip440)" d="M154.283 383.395 Q150.672 383.395 148.843 386.959 Q147.038 390.501 147.038 397.631 Q147.038 404.737 148.843 408.302 Q150.672 411.844 154.283 411.844 Q157.917 411.844 159.723 408.302 Q161.552 404.737 161.552 397.631 Q161.552 390.501 159.723 386.959 Q157.917 383.395 154.283 383.395 M154.283 379.691 Q160.093 379.691 163.149 384.297 Q166.227 388.881 166.227 397.631 Q166.227 406.357 163.149 410.964 Q160.093 415.547 154.283 415.547 Q148.473 415.547 145.394 410.964 Q142.339 406.357 142.339 397.631 Q142.339 388.881 145.394 384.297 Q148.473 379.691 154.283 379.691 Z" fill="#ffffff" fill-rule="evenodd" fill-opacity="1" /><path clip-path="url(#clip440)" d="M203.843 399.668 Q201.829 399.668 200.672 401.381 Q199.537 403.094 199.537 406.149 Q199.537 409.158 200.672 410.894 Q201.829 412.607 203.843 412.607 Q205.811 412.607 206.945 410.894 Q208.102 409.158 208.102 406.149 Q208.102 403.117 206.945 401.404 Q205.811 399.668 203.843 399.668 M203.843 396.728 Q207.5 396.728 209.653 399.274 Q211.806 401.82 211.806 406.149 Q211.806 410.478 209.63 413.024 Q207.477 415.547 203.843 415.547 Q200.139 415.547 197.987 413.024 Q195.834 410.478 195.834 406.149 Q195.834 401.797 197.987 399.274 Q200.162 396.728 203.843 396.728 M179.954 382.631 Q177.964 382.631 176.806 384.367 Q175.672 386.08 175.672 389.089 Q175.672 392.145 176.806 393.857 Q177.94 395.57 179.954 395.57 Q181.968 395.57 183.102 393.857 Q184.26 392.145 184.26 389.089 Q184.26 386.103 183.102 384.367 Q181.945 382.631 179.954 382.631 M200.857 379.691 L204.561 379.691 L182.94 415.547 L179.237 415.547 L200.857 379.691 M179.954 379.691 Q183.612 379.691 185.788 382.237 Q187.963 384.76 187.963 389.089 Q187.963 393.464 185.788 395.987 Q183.635 398.51 179.954 398.51 Q176.274 398.51 174.121 395.987 Q171.991 393.441 171.991 389.089 Q171.991 384.783 174.144 382.237 Q176.297 379.691 179.954 379.691 Z" fill="#ffffff" fill-rule="evenodd" fill-opacity="1" /><path clip-path="url(#clip440)" d="M114.931 209.682 L122.57 209.682 L122.57 183.316 L114.26 184.983 L114.26 180.724 L122.524 179.057 L127.2 179.057 L127.2 209.682 L134.839 209.682 L134.839 213.617 L114.931 213.617 L114.931 209.682 Z" fill="#ffffff" fill-rule="evenodd" fill-opacity="1" /><path clip-path="url(#clip440)" d="M148.311 209.682 L164.63 209.682 L164.63 213.617 L142.686 213.617 L142.686 209.682 Q145.348 206.927 149.931 202.298 Q154.538 197.645 155.718 196.302 Q157.964 193.779 158.843 192.043 Q159.746 190.284 159.746 188.594 Q159.746 185.84 157.802 184.103 Q155.88 182.367 152.778 182.367 Q150.579 182.367 148.126 183.131 Q145.695 183.895 142.917 185.446 L142.917 180.724 Q145.741 179.59 148.195 179.011 Q150.649 178.432 152.686 178.432 Q158.056 178.432 161.251 181.117 Q164.445 183.803 164.445 188.293 Q164.445 190.423 163.635 192.344 Q162.848 194.242 160.741 196.835 Q160.163 197.506 157.061 200.724 Q153.959 203.918 148.311 209.682 Z" fill="#ffffff" fill-rule="evenodd" fill-opacity="1" /><path clip-path="url(#clip440)" d="M203.843 198.409 Q201.829 198.409 200.672 200.122 Q199.537 201.835 199.537 204.89 Q199.537 207.9 200.672 209.636 Q201.829 211.349 203.843 211.349 Q205.811 211.349 206.945 209.636 Q208.102 207.9 208.102 204.89 Q208.102 201.858 206.945 200.145 Q205.811 198.409 203.843 198.409 M203.843 195.469 Q207.5 195.469 209.653 198.015 Q211.806 200.562 211.806 204.89 Q211.806 209.219 209.63 211.765 Q207.477 214.288 203.843 214.288 Q200.139 214.288 197.987 211.765 Q195.834 209.219 195.834 204.89 Q195.834 200.539 197.987 198.015 Q200.162 195.469 203.843 195.469 M179.954 181.372 Q177.964 181.372 176.806 183.108 Q175.672 184.821 175.672 187.83 Q175.672 190.886 176.806 192.599 Q177.94 194.312 179.954 194.312 Q181.968 194.312 183.102 192.599 Q184.26 190.886 184.26 187.83 Q184.26 184.844 183.102 183.108 Q181.945 181.372 179.954 181.372 M200.857 178.432 L204.561 178.432 L182.94 214.288 L179.237 214.288 L200.857 178.432 M179.954 178.432 Q183.612 178.432 185.788 180.978 Q187.963 183.502 187.963 187.83 Q187.963 192.205 185.788 194.728 Q183.635 197.252 179.954 197.252 Q176.274 197.252 174.121 194.728 Q171.991 192.182 171.991 187.83 Q171.991 183.525 174.144 180.978 Q176.297 178.432 179.954 178.432 Z" fill="#ffffff" fill-rule="evenodd" fill-opacity="1" /><path clip-path="url(#clip440)" d="M21.7677 1306.73 L39.6235 1306.73 L39.6235 1298.64 Q39.6235 1294.16 37.3 1291.7 Q34.9765 1289.25 30.6797 1289.25 Q26.4147 1289.25 24.0912 1291.7 Q21.7677 1294.16 21.7677 1298.64 L21.7677 1306.73 M16.4842 1313.16 L16.4842 1298.64 Q16.4842 1290.65 20.1126 1286.58 Q23.7092 1282.47 30.6797 1282.47 Q37.7138 1282.47 41.3104 1286.58 Q44.907 1290.65 44.907 1298.64 L44.907 1306.73 L64.0042 1306.73 L64.0042 1313.16 L16.4842 1313.16 Z" fill="#ffffff" fill-rule="evenodd" fill-opacity="1" /><path clip-path="url(#clip440)" d="M44.7161 1245.93 L47.5806 1245.93 L47.5806 1272.86 Q53.6281 1272.48 56.8109 1269.23 Q59.9619 1265.95 59.9619 1260.13 Q59.9619 1256.76 59.1344 1253.61 Q58.3069 1250.42 56.6518 1247.3 L62.1899 1247.3 Q63.5267 1250.45 64.227 1253.76 Q64.9272 1257.07 64.9272 1260.48 Q64.9272 1269.01 59.9619 1274.01 Q54.9967 1278.97 46.5303 1278.97 Q37.7774 1278.97 32.6531 1274.26 Q27.4968 1269.52 27.4968 1261.5 Q27.4968 1254.31 32.1438 1250.14 Q36.7589 1245.93 44.7161 1245.93 M42.9973 1251.79 Q38.1912 1251.85 35.3266 1254.5 Q32.4621 1257.11 32.4621 1261.44 Q32.4621 1266.34 35.2312 1269.3 Q38.0002 1272.23 43.0292 1272.67 L42.9973 1251.79 Z" fill="#ffffff" fill-rule="evenodd" fill-opacity="1" /><path clip-path="url(#clip440)" d="M33.8307 1215.67 Q33.2578 1216.65 33.0032 1217.83 Q32.7167 1218.98 32.7167 1220.38 Q32.7167 1225.34 35.9632 1228.02 Q39.1779 1230.66 45.2253 1230.66 L64.0042 1230.66 L64.0042 1236.55 L28.3562 1236.55 L28.3562 1230.66 L33.8944 1230.66 Q30.6479 1228.81 29.0883 1225.85 Q27.4968 1222.89 27.4968 1218.66 Q27.4968 1218.05 27.5923 1217.32 Q27.656 1216.59 27.8151 1215.7 L33.8307 1215.67 Z" fill="#ffffff" fill-rule="evenodd" fill-opacity="1" /><path clip-path="url(#clip440)" d="M29.7248 1185.3 L35.1993 1185.3 Q33.8307 1187.78 33.1623 1190.3 Q32.4621 1192.78 32.4621 1195.33 Q32.4621 1201.02 36.0905 1204.18 Q39.6872 1207.33 46.212 1207.33 Q52.7369 1207.33 56.3653 1204.18 Q59.9619 1201.02 59.9619 1195.33 Q59.9619 1192.78 59.2935 1190.3 Q58.5933 1187.78 57.2247 1185.3 L62.6355 1185.3 Q63.7814 1187.75 64.3543 1190.39 Q64.9272 1193 64.9272 1195.96 Q64.9272 1204.02 59.8664 1208.76 Q54.8057 1213.5 46.212 1213.5 Q37.491 1213.5 32.4939 1208.73 Q27.4968 1203.92 27.4968 1195.58 Q27.4968 1192.88 28.0697 1190.3 Q28.6108 1187.72 29.7248 1185.3 Z" fill="#ffffff" fill-rule="evenodd" fill-opacity="1" /><path clip-path="url(#clip440)" d="M44.7161 1144.62 L47.5806 1144.62 L47.5806 1171.55 Q53.6281 1171.17 56.8109 1167.92 Q59.9619 1164.64 59.9619 1158.82 Q59.9619 1155.45 59.1344 1152.3 Q58.3069 1149.11 56.6518 1145.99 L62.1899 1145.99 Q63.5267 1149.14 64.227 1152.45 Q64.9272 1155.76 64.9272 1159.17 Q64.9272 1167.7 59.9619 1172.7 Q54.9967 1177.66 46.5303 1177.66 Q37.7774 1177.66 32.6531 1172.95 Q27.4968 1168.21 27.4968 1160.19 Q27.4968 1153 32.1438 1148.83 Q36.7589 1144.62 44.7161 1144.62 M42.9973 1150.48 Q38.1912 1150.54 35.3266 1153.19 Q32.4621 1155.8 32.4621 1160.13 Q32.4621 1165.03 35.2312 1167.99 Q38.0002 1170.91 43.0292 1171.36 L42.9973 1150.48 Z" fill="#ffffff" fill-rule="evenodd" fill-opacity="1" /><path clip-path="url(#clip440)" d="M42.4881 1105.38 L64.0042 1105.38 L64.0042 1111.24 L42.679 1111.24 Q37.6183 1111.24 35.1038 1113.21 Q32.5894 1115.18 32.5894 1119.13 Q32.5894 1123.87 35.6131 1126.61 Q38.6368 1129.35 43.8567 1129.35 L64.0042 1129.35 L64.0042 1135.24 L28.3562 1135.24 L28.3562 1129.35 L33.8944 1129.35 Q30.6797 1127.25 29.0883 1124.41 Q27.4968 1121.55 27.4968 1117.83 Q27.4968 1111.68 31.3163 1108.53 Q35.1038 1105.38 42.4881 1105.38 Z" fill="#ffffff" fill-rule="evenodd" fill-opacity="1" /><path clip-path="url(#clip440)" d="M18.2347 1087.91 L28.3562 1087.91 L28.3562 1075.84 L32.9077 1075.84 L32.9077 1087.91 L52.2594 1087.91 Q56.6199 1087.91 57.8613 1086.73 Q59.1026 1085.52 59.1026 1081.86 L59.1026 1075.84 L64.0042 1075.84 L64.0042 1081.86 Q64.0042 1088.64 61.4897 1091.22 Q58.9434 1093.79 52.2594 1093.79 L32.9077 1093.79 L32.9077 1098.09 L28.3562 1098.09 L28.3562 1093.79 L18.2347 1093.79 L18.2347 1087.91 Z" fill="#ffffff" fill-rule="evenodd" fill-opacity="1" /><path clip-path="url(#clip440)" d="M32.4621 1033.61 Q32.4621 1038.32 36.1542 1041.05 Q39.8145 1043.79 46.212 1043.79 Q52.6095 1043.79 56.3017 1041.09 Q59.9619 1038.35 59.9619 1033.61 Q59.9619 1028.93 56.2698 1026.19 Q52.5777 1023.45 46.212 1023.45 Q39.8781 1023.45 36.186 1026.19 Q32.4621 1028.93 32.4621 1033.61 M27.4968 1033.61 Q27.4968 1025.97 32.4621 1021.61 Q37.4273 1017.25 46.212 1017.25 Q54.9649 1017.25 59.9619 1021.61 Q64.9272 1025.97 64.9272 1033.61 Q64.9272 1041.28 59.9619 1045.64 Q54.9649 1049.97 46.212 1049.97 Q37.4273 1049.97 32.4621 1045.64 Q27.4968 1041.28 27.4968 1033.61 Z" fill="#ffffff" fill-rule="evenodd" fill-opacity="1" /><path clip-path="url(#clip440)" d="M14.479 989.492 L19.3487 989.492 L19.3487 995.094 Q19.3487 998.245 20.6219 999.487 Q21.895 1000.7 25.2052 1000.7 L28.3562 1000.7 L28.3562 991.052 L32.9077 991.052 L32.9077 1000.7 L64.0042 1000.7 L64.0042 1006.58 L32.9077 1006.58 L32.9077 1012.19 L28.3562 1012.19 L28.3562 1006.58 L25.8736 1006.58 Q19.9216 1006.58 17.2162 1003.82 Q14.479 1001.05 14.479 995.031 L14.479 989.492 Z" fill="#ffffff" fill-rule="evenodd" fill-opacity="1" /><path clip-path="url(#clip440)" d="M64.0042 951.362 L16.4842 969.504 L16.4842 962.788 L56.4926 947.733 L16.4842 932.647 L16.4842 925.963 L64.0042 944.073 L64.0042 951.362 Z" fill="#ffffff" fill-rule="evenodd" fill-opacity="1" /><path clip-path="url(#clip440)" d="M44.7161 893.848 L47.5806 893.848 L47.5806 920.775 Q53.6281 920.393 56.8109 917.146 Q59.9619 913.868 59.9619 908.043 Q59.9619 904.669 59.1344 901.518 Q58.3069 898.335 56.6518 895.216 L62.1899 895.216 Q63.5267 898.367 64.227 901.677 Q64.9272 904.988 64.9272 908.393 Q64.9272 916.923 59.9619 921.92 Q54.9967 926.886 46.5303 926.886 Q37.7774 926.886 32.6531 922.175 Q27.4968 917.433 27.4968 909.412 Q27.4968 902.219 32.1438 898.049 Q36.7589 893.848 44.7161 893.848 M42.9973 899.704 Q38.1912 899.768 35.3266 902.409 Q32.4621 905.019 32.4621 909.348 Q32.4621 914.25 35.2312 917.21 Q38.0002 920.138 43.0292 920.584 L42.9973 899.704 Z" fill="#ffffff" fill-rule="evenodd" fill-opacity="1" /><path clip-path="url(#clip440)" d="M33.8307 863.579 Q33.2578 864.565 33.0032 865.743 Q32.7167 866.889 32.7167 868.289 Q32.7167 873.255 35.9632 875.928 Q39.1779 878.57 45.2253 878.57 L64.0042 878.57 L64.0042 884.458 L28.3562 884.458 L28.3562 878.57 L33.8944 878.57 Q30.6479 876.724 29.0883 873.764 Q27.4968 870.804 27.4968 866.571 Q27.4968 865.966 27.5923 865.234 Q27.656 864.502 27.8151 863.611 L33.8307 863.579 Z" fill="#ffffff" fill-rule="evenodd" fill-opacity="1" /><path clip-path="url(#clip440)" d="M18.2347 851.643 L28.3562 851.643 L28.3562 839.58 L32.9077 839.58 L32.9077 851.643 L52.2594 851.643 Q56.6199 851.643 57.8613 850.465 Q59.1026 849.256 59.1026 845.596 L59.1026 839.58 L64.0042 839.58 L64.0042 845.596 Q64.0042 852.375 61.4897 854.953 Q58.9434 857.531 52.2594 857.531 L32.9077 857.531 L32.9077 861.828 L28.3562 861.828 L28.3562 857.531 L18.2347 857.531 L18.2347 851.643 Z" fill="#ffffff" fill-rule="evenodd" fill-opacity="1" /><path clip-path="url(#clip440)" d="M28.3562 831.877 L28.3562 826.021 L64.0042 826.021 L64.0042 831.877 L28.3562 831.877 M14.479 831.877 L14.479 826.021 L21.895 826.021 L21.895 831.877 L14.479 831.877 Z" fill="#ffffff" fill-rule="evenodd" fill-opacity="1" /><path clip-path="url(#clip440)" d="M29.7248 788.113 L35.1993 788.113 Q33.8307 790.596 33.1623 793.11 Q32.4621 795.593 32.4621 798.139 Q32.4621 803.837 36.0905 806.988 Q39.6872 810.139 46.212 810.139 Q52.7369 810.139 56.3653 806.988 Q59.9619 803.837 59.9619 798.139 Q59.9619 795.593 59.2935 793.11 Q58.5933 790.596 57.2247 788.113 L62.6355 788.113 Q63.7814 790.564 64.3543 793.206 Q64.9272 795.816 64.9272 798.776 Q64.9272 806.828 59.8664 811.571 Q54.8057 816.313 46.212 816.313 Q37.491 816.313 32.4939 811.539 Q27.4968 806.733 27.4968 798.394 Q27.4968 795.688 28.0697 793.11 Q28.6108 790.532 29.7248 788.113 Z" fill="#ffffff" fill-rule="evenodd" fill-opacity="1" /><path clip-path="url(#clip440)" d="M46.0847 761.727 Q46.0847 768.825 47.7079 771.562 Q49.3312 774.3 53.2461 774.3 Q56.3653 774.3 58.2114 772.263 Q60.0256 770.194 60.0256 766.661 Q60.0256 761.791 56.5881 758.863 Q53.1188 755.903 47.3897 755.903 L46.0847 755.903 L46.0847 761.727 M43.6657 750.046 L64.0042 750.046 L64.0042 755.903 L58.5933 755.903 Q61.8398 757.908 63.3994 760.9 Q64.9272 763.892 64.9272 768.22 Q64.9272 773.695 61.8716 776.941 Q58.7843 780.156 53.6281 780.156 Q47.6125 780.156 44.5569 776.146 Q41.5014 772.103 41.5014 764.115 L41.5014 755.903 L40.9285 755.903 Q36.8862 755.903 34.6901 758.576 Q32.4621 761.218 32.4621 766.024 Q32.4621 769.08 33.1941 771.976 Q33.9262 774.873 35.3903 777.546 L29.9795 777.546 Q28.7381 774.331 28.1334 771.308 Q27.4968 768.284 27.4968 765.419 Q27.4968 757.685 31.5072 753.866 Q35.5176 750.046 43.6657 750.046 Z" fill="#ffffff" fill-rule="evenodd" fill-opacity="1" /><path clip-path="url(#clip440)" d="M14.479 737.983 L14.479 732.127 L64.0042 732.127 L64.0042 737.983 L14.479 737.983 Z" fill="#ffffff" fill-rule="evenodd" fill-opacity="1" /><path clip-path="url(#clip440)" d="M16.4842 698.898 L16.4842 692.468 L64.0042 692.468 L64.0042 698.898 L16.4842 698.898 Z" fill="#ffffff" fill-rule="evenodd" fill-opacity="1" /><path clip-path="url(#clip440)" d="M35.1993 652.174 Q31.2526 649.977 29.3747 646.922 Q27.4968 643.866 27.4968 639.729 Q27.4968 634.159 31.4117 631.135 Q35.2948 628.111 42.4881 628.111 L64.0042 628.111 L64.0042 633.999 L42.679 633.999 Q37.5546 633.999 35.072 635.814 Q32.5894 637.628 32.5894 641.352 Q32.5894 645.903 35.6131 648.545 Q38.6368 651.187 43.8567 651.187 L64.0042 651.187 L64.0042 657.075 L42.679 657.075 Q37.5228 657.075 35.072 658.889 Q32.5894 660.704 32.5894 664.491 Q32.5894 668.979 35.6449 671.621 Q38.6686 674.263 43.8567 674.263 L64.0042 674.263 L64.0042 680.151 L28.3562 680.151 L28.3562 674.263 L33.8944 674.263 Q30.616 672.257 29.0564 669.456 Q27.4968 666.656 27.4968 662.804 Q27.4968 658.921 29.4702 656.216 Q31.4436 653.479 35.1993 652.174 Z" fill="#ffffff" fill-rule="evenodd" fill-opacity="1" /><path clip-path="url(#clip440)" d="M58.657 610.765 L77.5631 610.765 L77.5631 616.653 L28.3562 616.653 L28.3562 610.765 L33.7671 610.765 Q30.5842 608.919 29.0564 606.118 Q27.4968 603.285 27.4968 599.37 Q27.4968 592.877 32.6531 588.835 Q37.8093 584.761 46.212 584.761 Q54.6147 584.761 59.771 588.835 Q64.9272 592.877 64.9272 599.37 Q64.9272 603.285 63.3994 606.118 Q61.8398 608.919 58.657 610.765 M46.212 590.84 Q39.7508 590.84 36.0905 593.514 Q32.3984 596.155 32.3984 600.802 Q32.3984 605.449 36.0905 608.123 Q39.7508 610.765 46.212 610.765 Q52.6732 610.765 56.3653 608.123 Q60.0256 605.449 60.0256 600.802 Q60.0256 596.155 56.3653 593.514 Q52.6732 590.84 46.212 590.84 Z" fill="#ffffff" fill-rule="evenodd" fill-opacity="1" /><path clip-path="url(#clip440)" d="M49.9359 575.658 L28.3562 575.658 L28.3562 569.801 L49.7131 569.801 Q54.7739 569.801 57.3202 567.828 Q59.8346 565.855 59.8346 561.908 Q59.8346 557.165 56.8109 554.428 Q53.7872 551.659 48.5673 551.659 L28.3562 551.659 L28.3562 545.803 L64.0042 545.803 L64.0042 551.659 L58.5296 551.659 Q61.7762 553.792 63.3676 556.624 Q64.9272 559.425 64.9272 563.149 Q64.9272 569.292 61.1078 572.475 Q57.2883 575.658 49.9359 575.658 M27.4968 560.921 L27.4968 560.921 Z" fill="#ffffff" fill-rule="evenodd" fill-opacity="1" /><path clip-path="url(#clip440)" d="M14.479 533.74 L14.479 527.883 L64.0042 527.883 L64.0042 533.74 L14.479 533.74 Z" fill="#ffffff" fill-rule="evenodd" fill-opacity="1" /><path clip-path="url(#clip440)" d="M29.4065 492.904 L34.9447 492.904 Q33.6716 495.386 33.035 498.06 Q32.3984 500.733 32.3984 503.598 Q32.3984 507.958 33.7352 510.155 Q35.072 512.319 37.7456 512.319 Q39.7826 512.319 40.9603 510.759 Q42.1061 509.2 43.1565 504.489 L43.6021 502.484 Q44.9389 496.246 47.3897 493.636 Q49.8086 490.994 54.1691 490.994 Q59.1344 490.994 62.0308 494.941 Q64.9272 498.856 64.9272 505.73 Q64.9272 508.595 64.3543 511.714 Q63.8132 514.802 62.6992 518.239 L56.6518 518.239 Q58.3387 514.993 59.198 511.842 Q60.0256 508.691 60.0256 505.603 Q60.0256 501.465 58.6251 499.237 Q57.1929 497.009 54.6147 497.009 Q52.2276 497.009 50.9545 498.633 Q49.6813 500.224 48.5037 505.667 L48.0262 507.704 Q46.8804 513.147 44.5251 515.566 Q42.138 517.984 38.0002 517.984 Q32.9713 517.984 30.2341 514.42 Q27.4968 510.855 27.4968 504.298 Q27.4968 501.052 27.9743 498.187 Q28.4517 495.323 29.4065 492.904 Z" fill="#ffffff" fill-rule="evenodd" fill-opacity="1" /><path clip-path="url(#clip440)" d="M44.7161 451.176 L47.5806 451.176 L47.5806 478.103 Q53.6281 477.721 56.8109 474.475 Q59.9619 471.197 59.9619 465.372 Q59.9619 461.998 59.1344 458.847 Q58.3069 455.664 56.6518 452.545 L62.1899 452.545 Q63.5267 455.696 64.227 459.006 Q64.9272 462.316 64.9272 465.722 Q64.9272 474.252 59.9619 479.249 Q54.9967 484.214 46.5303 484.214 Q37.7774 484.214 32.6531 479.504 Q27.4968 474.761 27.4968 466.741 Q27.4968 459.547 32.1438 455.378 Q36.7589 451.176 44.7161 451.176 M42.9973 457.033 Q38.1912 457.096 35.3266 459.738 Q32.4621 462.348 32.4621 466.677 Q32.4621 471.578 35.2312 474.539 Q38.0002 477.467 43.0292 477.912 L42.9973 457.033 Z" fill="#ffffff" fill-rule="evenodd" fill-opacity="1" /><path clip-path="url(#clip440)" d="M16.4842 420.589 L16.4842 414.16 L58.5933 414.16 L58.5933 391.02 L64.0042 391.02 L64.0042 420.589 L16.4842 420.589 Z" fill="#ffffff" fill-rule="evenodd" fill-opacity="1" /><path clip-path="url(#clip440)" d="M32.4621 371.86 Q32.4621 376.57 36.1542 379.308 Q39.8145 382.045 46.212 382.045 Q52.6095 382.045 56.3017 379.339 Q59.9619 376.602 59.9619 371.86 Q59.9619 367.181 56.2698 364.444 Q52.5777 361.706 46.212 361.706 Q39.8781 361.706 36.186 364.444 Q32.4621 367.181 32.4621 371.86 M27.4968 371.86 Q27.4968 364.221 32.4621 359.86 Q37.4273 355.5 46.212 355.5 Q54.9649 355.5 59.9619 359.86 Q64.9272 364.221 64.9272 371.86 Q64.9272 379.53 59.9619 383.891 Q54.9649 388.22 46.212 388.22 Q37.4273 388.22 32.4621 383.891 Q27.4968 379.53 27.4968 371.86 Z" fill="#ffffff" fill-rule="evenodd" fill-opacity="1" /><path clip-path="url(#clip440)" d="M29.4065 323.067 L34.9447 323.067 Q33.6716 325.549 33.035 328.223 Q32.3984 330.896 32.3984 333.761 Q32.3984 338.121 33.7352 340.318 Q35.072 342.482 37.7456 342.482 Q39.7826 342.482 40.9603 340.922 Q42.1061 339.363 43.1565 334.652 L43.6021 332.647 Q44.9389 326.409 47.3897 323.799 Q49.8086 321.157 54.1691 321.157 Q59.1344 321.157 62.0308 325.104 Q64.9272 329.018 64.9272 335.893 Q64.9272 338.758 64.3543 341.877 Q63.8132 344.965 62.6992 348.402 L56.6518 348.402 Q58.3387 345.156 59.198 342.005 Q60.0256 338.853 60.0256 335.766 Q60.0256 331.628 58.6251 329.4 Q57.1929 327.172 54.6147 327.172 Q52.2276 327.172 50.9545 328.796 Q49.6813 330.387 48.5037 335.83 L48.0262 337.867 Q46.8804 343.309 44.5251 345.728 Q42.138 348.147 38.0002 348.147 Q32.9713 348.147 30.2341 344.583 Q27.4968 341.018 27.4968 334.461 Q27.4968 331.215 27.9743 328.35 Q28.4517 325.486 29.4065 323.067 Z" fill="#ffffff" fill-rule="evenodd" fill-opacity="1" /><path clip-path="url(#clip440)" d="M18.2347 306.038 L28.3562 306.038 L28.3562 293.975 L32.9077 293.975 L32.9077 306.038 L52.2594 306.038 Q56.6199 306.038 57.8613 304.861 Q59.1026 303.651 59.1026 299.991 L59.1026 293.975 L64.0042 293.975 L64.0042 299.991 Q64.0042 306.77 61.4897 309.348 Q58.9434 311.927 52.2594 311.927 L32.9077 311.927 L32.9077 316.223 L28.3562 316.223 L28.3562 311.927 L18.2347 311.927 L18.2347 306.038 Z" fill="#ffffff" fill-rule="evenodd" fill-opacity="1" /><path clip-path="url(#clip440)" d="M781.866 87.696 L758.776 27.216 L767.324 27.216 L786.484 78.1359 L805.686 27.216 L814.193 27.216 L791.143 87.696 L781.866 87.696 Z" fill="#ffffff" fill-rule="evenodd" fill-opacity="1" /><path clip-path="url(#clip440)" d="M855.066 63.1475 L855.066 66.7933 L820.796 66.7933 Q821.282 74.4901 825.414 78.541 Q829.586 82.5514 836.999 82.5514 Q841.293 82.5514 845.304 81.4981 Q849.355 80.4449 853.324 78.3384 L853.324 85.387 Q849.314 87.0884 845.101 87.9796 Q840.888 88.8708 836.554 88.8708 Q825.697 88.8708 819.337 82.5514 Q813.018 76.2319 813.018 65.4565 Q813.018 54.3165 819.013 47.7946 Q825.049 41.2321 835.257 41.2321 Q844.412 41.2321 849.719 47.1464 Q855.066 53.0203 855.066 63.1475 M847.613 60.96 Q847.532 54.8432 844.169 51.1974 Q840.848 47.5515 835.338 47.5515 Q829.1 47.5515 825.333 51.0758 Q821.606 54.6001 821.039 61.0005 L847.613 60.96 Z" fill="#ffffff" fill-rule="evenodd" fill-opacity="1" /><path clip-path="url(#clip440)" d="M893.59 49.2934 Q892.335 48.5643 890.836 48.2402 Q889.377 47.8756 887.595 47.8756 Q881.276 47.8756 877.873 52.0075 Q874.511 56.0989 874.511 63.7957 L874.511 87.696 L867.016 87.696 L867.016 42.3259 L874.511 42.3259 L874.511 49.3744 Q876.86 45.2425 880.627 43.2576 Q884.395 41.2321 889.783 41.2321 Q890.552 41.2321 891.484 41.3537 Q892.416 41.4347 893.55 41.6372 L893.59 49.2934 Z" fill="#ffffff" fill-rule="evenodd" fill-opacity="1" /><path clip-path="url(#clip440)" d="M908.781 29.444 L908.781 42.3259 L924.134 42.3259 L924.134 48.1187 L908.781 48.1187 L908.781 72.7482 Q908.781 78.2979 910.28 79.8778 Q911.819 81.4576 916.478 81.4576 L924.134 81.4576 L924.134 87.696 L916.478 87.696 Q907.85 87.696 904.568 84.4958 Q901.287 81.2551 901.287 72.7482 L901.287 48.1187 L895.818 48.1187 L895.818 42.3259 L901.287 42.3259 L901.287 29.444 L908.781 29.444 Z" fill="#ffffff" fill-rule="evenodd" fill-opacity="1" /><path clip-path="url(#clip440)" d="M933.937 42.3259 L941.391 42.3259 L941.391 87.696 L933.937 87.696 L933.937 42.3259 M933.937 24.6639 L941.391 24.6639 L941.391 34.1025 L933.937 34.1025 L933.937 24.6639 Z" fill="#ffffff" fill-rule="evenodd" fill-opacity="1" /><path clip-path="url(#clip440)" d="M989.637 44.0678 L989.637 51.0353 Q986.478 49.2934 983.277 48.4427 Q980.118 47.5515 976.877 47.5515 Q969.626 47.5515 965.615 52.1696 Q961.605 56.7471 961.605 65.0514 Q961.605 73.3558 965.615 77.9738 Q969.626 82.5514 976.877 82.5514 Q980.118 82.5514 983.277 81.7007 Q986.478 80.8095 989.637 79.0676 L989.637 85.9541 Q986.518 87.4124 983.156 88.1416 Q979.834 88.8708 976.067 88.8708 Q965.818 88.8708 959.782 82.4298 Q953.746 75.9889 953.746 65.0514 Q953.746 53.952 959.823 47.592 Q965.94 41.2321 976.553 41.2321 Q979.996 41.2321 983.277 41.9613 Q986.559 42.6499 989.637 44.0678 Z" fill="#ffffff" fill-rule="evenodd" fill-opacity="1" /><path clip-path="url(#clip440)" d="M1023.22 64.8894 Q1014.19 64.8894 1010.7 66.9554 Q1007.22 69.0213 1007.22 74.0039 Q1007.22 77.9738 1009.81 80.3234 Q1012.44 82.6324 1016.94 82.6324 Q1023.14 82.6324 1026.87 78.2574 Q1030.63 73.8419 1030.63 66.5503 L1030.63 64.8894 L1023.22 64.8894 M1038.09 61.8107 L1038.09 87.696 L1030.63 87.696 L1030.63 80.8095 Q1028.08 84.9414 1024.27 86.9263 Q1020.46 88.8708 1014.96 88.8708 Q1007.99 88.8708 1003.86 84.9819 Q999.765 81.0525 999.765 74.4901 Q999.765 66.8338 1004.87 62.945 Q1010.01 59.0561 1020.18 59.0561 L1030.63 59.0561 L1030.63 58.3269 Q1030.63 53.1823 1027.23 50.3872 Q1023.87 47.5515 1017.75 47.5515 Q1013.86 47.5515 1010.18 48.4832 Q1006.49 49.415 1003.09 51.2784 L1003.09 44.3918 Q1007.18 42.812 1011.03 42.0423 Q1014.87 41.2321 1018.52 41.2321 Q1028.36 41.2321 1033.23 46.3363 Q1038.09 51.4404 1038.09 61.8107 Z" fill="#ffffff" fill-rule="evenodd" fill-opacity="1" /><path clip-path="url(#clip440)" d="M1053.44 24.6639 L1060.89 24.6639 L1060.89 87.696 L1053.44 87.696 L1053.44 24.6639 Z" fill="#ffffff" fill-rule="evenodd" fill-opacity="1" /><path clip-path="url(#clip440)" d="M1103.18 27.216 L1111.37 27.216 L1111.37 87.696 L1103.18 87.696 L1103.18 27.216 Z" fill="#ffffff" fill-rule="evenodd" fill-opacity="1" /><path clip-path="url(#clip440)" d="M1162.65 51.0353 Q1165.45 46.0122 1169.34 43.6222 Q1173.22 41.2321 1178.49 41.2321 Q1185.58 41.2321 1189.43 46.2147 Q1193.28 51.1568 1193.28 60.3119 L1193.28 87.696 L1185.78 87.696 L1185.78 60.5549 Q1185.78 54.033 1183.47 50.8733 Q1181.16 47.7136 1176.42 47.7136 Q1170.63 47.7136 1167.27 51.5619 Q1163.91 55.4103 1163.91 62.0538 L1163.91 87.696 L1156.41 87.696 L1156.41 60.5549 Q1156.41 53.9925 1154.1 50.8733 Q1151.8 47.7136 1146.97 47.7136 Q1141.26 47.7136 1137.9 51.6024 Q1134.54 55.4508 1134.54 62.0538 L1134.54 87.696 L1127.04 87.696 L1127.04 42.3259 L1134.54 42.3259 L1134.54 49.3744 Q1137.09 45.202 1140.66 43.2171 Q1144.22 41.2321 1149.12 41.2321 Q1154.06 41.2321 1157.51 43.7437 Q1160.99 46.2552 1162.65 51.0353 Z" fill="#ffffff" fill-rule="evenodd" fill-opacity="1" /><path clip-path="url(#clip440)" d="M1215.35 80.8905 L1215.35 104.953 L1207.86 104.953 L1207.86 42.3259 L1215.35 42.3259 L1215.35 49.2124 Q1217.7 45.1615 1221.27 43.2171 Q1224.87 41.2321 1229.86 41.2321 Q1238.12 41.2321 1243.26 47.7946 Q1248.45 54.3571 1248.45 65.0514 Q1248.45 75.7458 1243.26 82.3083 Q1238.12 88.8708 1229.86 88.8708 Q1224.87 88.8708 1221.27 86.9263 Q1217.7 84.9414 1215.35 80.8905 M1240.71 65.0514 Q1240.71 56.8281 1237.31 52.1696 Q1233.95 47.4705 1228.03 47.4705 Q1222.12 47.4705 1218.72 52.1696 Q1215.35 56.8281 1215.35 65.0514 Q1215.35 73.2748 1218.72 77.9738 Q1222.12 82.6324 1228.03 82.6324 Q1233.95 82.6324 1237.31 77.9738 Q1240.71 73.2748 1240.71 65.0514 Z" fill="#ffffff" fill-rule="evenodd" fill-opacity="1" /><path clip-path="url(#clip440)" d="M1260.04 69.791 L1260.04 42.3259 L1267.49 42.3259 L1267.49 69.5074 Q1267.49 75.9484 1270 79.1891 Q1272.51 82.3893 1277.54 82.3893 Q1283.57 82.3893 1287.05 78.541 Q1290.58 74.6926 1290.58 68.0491 L1290.58 42.3259 L1298.03 42.3259 L1298.03 87.696 L1290.58 87.696 L1290.58 80.7284 Q1287.86 84.8604 1284.26 86.8858 Q1280.69 88.8708 1275.96 88.8708 Q1268.14 88.8708 1264.09 84.0097 Q1260.04 79.1486 1260.04 69.791 M1278.79 41.2321 L1278.79 41.2321 Z" fill="#ffffff" fill-rule="evenodd" fill-opacity="1" /><path clip-path="url(#clip440)" d="M1313.39 24.6639 L1320.84 24.6639 L1320.84 87.696 L1313.39 87.696 L1313.39 24.6639 Z" fill="#ffffff" fill-rule="evenodd" fill-opacity="1" /><path clip-path="url(#clip440)" d="M1365.36 43.6627 L1365.36 50.7112 Q1362.2 49.0909 1358.8 48.2807 Q1355.39 47.4705 1351.75 47.4705 Q1346.2 47.4705 1343.4 49.1719 Q1340.65 50.8733 1340.65 54.276 Q1340.65 56.8686 1342.63 58.3675 Q1344.62 59.8258 1350.61 61.1626 L1353.17 61.7297 Q1361.11 63.4311 1364.43 66.5503 Q1367.79 69.629 1367.79 75.1787 Q1367.79 81.4981 1362.77 85.1844 Q1357.78 88.8708 1349.03 88.8708 Q1345.39 88.8708 1341.42 88.1416 Q1337.49 87.4529 1333.11 86.0351 L1333.11 78.3384 Q1337.25 80.4854 1341.26 81.5791 Q1345.27 82.6324 1349.2 82.6324 Q1354.46 82.6324 1357.3 80.85 Q1360.13 79.0271 1360.13 75.7458 Q1360.13 72.7077 1358.07 71.0873 Q1356.04 69.4669 1349.11 67.9681 L1346.52 67.3605 Q1339.59 65.9021 1336.52 62.9045 Q1333.44 59.8663 1333.44 54.6001 Q1333.44 48.1997 1337.97 44.7159 Q1342.51 41.2321 1350.86 41.2321 Q1354.99 41.2321 1358.63 41.8398 Q1362.28 42.4474 1365.36 43.6627 Z" fill="#ffffff" fill-rule="evenodd" fill-opacity="1" /><path clip-path="url(#clip440)" d="M1418.47 63.1475 L1418.47 66.7933 L1384.2 66.7933 Q1384.68 74.4901 1388.81 78.541 Q1392.99 82.5514 1400.4 82.5514 Q1404.69 82.5514 1408.7 81.4981 Q1412.75 80.4449 1416.72 78.3384 L1416.72 85.387 Q1412.71 87.0884 1408.5 87.9796 Q1404.29 88.8708 1399.95 88.8708 Q1389.1 88.8708 1382.74 82.5514 Q1376.42 76.2319 1376.42 65.4565 Q1376.42 54.3165 1382.41 47.7946 Q1388.45 41.2321 1398.66 41.2321 Q1407.81 41.2321 1413.12 47.1464 Q1418.47 53.0203 1418.47 63.1475 M1411.01 60.96 Q1410.93 54.8432 1407.57 51.1974 Q1404.25 47.5515 1398.74 47.5515 Q1392.5 47.5515 1388.73 51.0758 Q1385.01 54.6001 1384.44 61.0005 L1411.01 60.96 Z" fill="#ffffff" fill-rule="evenodd" fill-opacity="1" /><path clip-path="url(#clip440)" d="M1465.58 33.9405 L1465.58 80.9715 L1475.46 80.9715 Q1487.98 80.9715 1493.77 75.3002 Q1499.61 69.629 1499.61 57.3952 Q1499.61 45.2425 1493.77 39.6118 Q1487.98 33.9405 1475.46 33.9405 L1465.58 33.9405 M1457.4 27.216 L1474.21 27.216 Q1491.79 27.216 1500.01 34.5481 Q1508.23 41.8398 1508.23 57.3952 Q1508.23 73.0317 1499.97 80.3639 Q1491.71 87.696 1474.21 87.696 L1457.4 87.696 L1457.4 27.216 Z" fill="#ffffff" fill-rule="evenodd" fill-opacity="1" /><path clip-path="url(#clip440)" d="M1559.76 63.1475 L1559.76 66.7933 L1525.49 66.7933 Q1525.98 74.4901 1530.11 78.541 Q1534.28 82.5514 1541.69 82.5514 Q1545.99 82.5514 1550 81.4981 Q1554.05 80.4449 1558.02 78.3384 L1558.02 85.387 Q1554.01 87.0884 1549.8 87.9796 Q1545.58 88.8708 1541.25 88.8708 Q1530.39 88.8708 1524.03 82.5514 Q1517.71 76.2319 1517.71 65.4565 Q1517.71 54.3165 1523.71 47.7946 Q1529.74 41.2321 1539.95 41.2321 Q1549.11 41.2321 1554.41 47.1464 Q1559.76 53.0203 1559.76 63.1475 M1552.31 60.96 Q1552.23 54.8432 1548.86 51.1974 Q1545.54 47.5515 1540.03 47.5515 Q1533.8 47.5515 1530.03 51.0758 Q1526.3 54.6001 1525.73 61.0005 L1552.31 60.96 Z" fill="#ffffff" fill-rule="evenodd" fill-opacity="1" /><path clip-path="url(#clip440)" d="M1594.96 24.6639 L1594.96 30.8618 L1587.83 30.8618 Q1583.82 30.8618 1582.24 32.4822 Q1580.7 34.1025 1580.7 38.3155 L1580.7 42.3259 L1592.98 42.3259 L1592.98 48.1187 L1580.7 48.1187 L1580.7 87.696 L1573.21 87.696 L1573.21 48.1187 L1566.08 48.1187 L1566.08 42.3259 L1573.21 42.3259 L1573.21 39.1662 Q1573.21 31.591 1576.73 28.1477 Q1580.26 24.6639 1587.92 24.6639 L1594.96 24.6639 Z" fill="#ffffff" fill-rule="evenodd" fill-opacity="1" /><path clip-path="url(#clip440)" d="M1601.2 24.6639 L1608.66 24.6639 L1608.66 87.696 L1601.2 87.696 L1601.2 24.6639 Z" fill="#ffffff" fill-rule="evenodd" fill-opacity="1" /><path clip-path="url(#clip440)" d="M1663.06 63.1475 L1663.06 66.7933 L1628.79 66.7933 Q1629.28 74.4901 1633.41 78.541 Q1637.58 82.5514 1644.99 82.5514 Q1649.29 82.5514 1653.3 81.4981 Q1657.35 80.4449 1661.32 78.3384 L1661.32 85.387 Q1657.31 87.0884 1653.09 87.9796 Q1648.88 88.8708 1644.55 88.8708 Q1633.69 88.8708 1627.33 82.5514 Q1621.01 76.2319 1621.01 65.4565 Q1621.01 54.3165 1627.01 47.7946 Q1633.04 41.2321 1643.25 41.2321 Q1652.41 41.2321 1657.71 47.1464 Q1663.06 53.0203 1663.06 63.1475 M1655.61 60.96 Q1655.52 54.8432 1652.16 51.1974 Q1648.84 47.5515 1643.33 47.5515 Q1637.09 47.5515 1633.33 51.0758 Q1629.6 54.6001 1629.03 61.0005 L1655.61 60.96 Z" fill="#ffffff" fill-rule="evenodd" fill-opacity="1" /><path clip-path="url(#clip440)" d="M1707.94 44.0678 L1707.94 51.0353 Q1704.78 49.2934 1701.58 48.4427 Q1698.42 47.5515 1695.18 47.5515 Q1687.93 47.5515 1683.92 52.1696 Q1679.91 56.7471 1679.91 65.0514 Q1679.91 73.3558 1683.92 77.9738 Q1687.93 82.5514 1695.18 82.5514 Q1698.42 82.5514 1701.58 81.7007 Q1704.78 80.8095 1707.94 79.0676 L1707.94 85.9541 Q1704.82 87.4124 1701.46 88.1416 Q1698.14 88.8708 1694.37 88.8708 Q1684.12 88.8708 1678.09 82.4298 Q1672.05 75.9889 1672.05 65.0514 Q1672.05 53.952 1678.13 47.592 Q1684.25 41.2321 1694.86 41.2321 Q1698.3 41.2321 1701.58 41.9613 Q1704.86 42.6499 1707.94 44.0678 Z" fill="#ffffff" fill-rule="evenodd" fill-opacity="1" /><path clip-path="url(#clip440)" d="M1728.28 29.444 L1728.28 42.3259 L1743.63 42.3259 L1743.63 48.1187 L1728.28 48.1187 L1728.28 72.7482 Q1728.28 78.2979 1729.78 79.8778 Q1731.32 81.4576 1735.98 81.4576 L1743.63 81.4576 L1743.63 87.696 L1735.98 87.696 Q1727.35 87.696 1724.07 84.4958 Q1720.79 81.2551 1720.79 72.7482 L1720.79 48.1187 L1715.32 48.1187 L1715.32 42.3259 L1720.79 42.3259 L1720.79 29.444 L1728.28 29.444 Z" fill="#ffffff" fill-rule="evenodd" fill-opacity="1" /><path clip-path="url(#clip440)" d="M1792.24 63.1475 L1792.24 66.7933 L1757.97 66.7933 Q1758.46 74.4901 1762.59 78.541 Q1766.76 82.5514 1774.18 82.5514 Q1778.47 82.5514 1782.48 81.4981 Q1786.53 80.4449 1790.5 78.3384 L1790.5 85.387 Q1786.49 87.0884 1782.28 87.9796 Q1778.06 88.8708 1773.73 88.8708 Q1762.87 88.8708 1756.51 82.5514 Q1750.19 76.2319 1750.19 65.4565 Q1750.19 54.3165 1756.19 47.7946 Q1762.23 41.2321 1772.43 41.2321 Q1781.59 41.2321 1786.9 47.1464 Q1792.24 53.0203 1792.24 63.1475 M1784.79 60.96 Q1784.71 54.8432 1781.35 51.1974 Q1778.02 47.5515 1772.52 47.5515 Q1766.28 47.5515 1762.51 51.0758 Q1758.78 54.6001 1758.22 61.0005 L1784.79 60.96 Z" fill="#ffffff" fill-rule="evenodd" fill-opacity="1" /><path clip-path="url(#clip440)" d="M1834.33 49.2124 L1834.33 24.6639 L1841.79 24.6639 L1841.79 87.696 L1834.33 87.696 L1834.33 80.8905 Q1831.98 84.9414 1828.38 86.9263 Q1824.81 88.8708 1819.79 88.8708 Q1811.57 88.8708 1806.38 82.3083 Q1801.24 75.7458 1801.24 65.0514 Q1801.24 54.3571 1806.38 47.7946 Q1811.57 41.2321 1819.79 41.2321 Q1824.81 41.2321 1828.38 43.2171 Q1831.98 45.1615 1834.33 49.2124 M1808.93 65.0514 Q1808.93 73.2748 1812.29 77.9738 Q1815.7 82.6324 1821.61 82.6324 Q1827.53 82.6324 1830.93 77.9738 Q1834.33 73.2748 1834.33 65.0514 Q1834.33 56.8281 1830.93 52.1696 Q1827.53 47.4705 1821.61 47.4705 Q1815.7 47.4705 1812.29 52.1696 Q1808.93 56.8281 1808.93 65.0514 Z" fill="#ffffff" fill-rule="evenodd" fill-opacity="1" /><path clip-path="url(#clip440)" d="M811.458 169.788 L811.458 153.543 L798.09 153.543 L798.09 146.819 L819.56 146.819 L819.56 172.785 Q814.821 176.147 809.109 177.889 Q803.397 179.591 796.916 179.591 Q782.737 179.591 774.717 171.327 Q766.736 163.023 766.736 148.237 Q766.736 133.41 774.717 125.147 Q782.737 116.842 796.916 116.842 Q802.83 116.842 808.137 118.301 Q813.484 119.759 817.98 122.595 L817.98 131.304 Q813.443 127.456 808.339 125.511 Q803.235 123.567 797.604 123.567 Q786.505 123.567 780.914 129.765 Q775.365 135.963 775.365 148.237 Q775.365 160.47 780.914 166.668 Q786.505 172.866 797.604 172.866 Q801.939 172.866 805.341 172.137 Q808.744 171.367 811.458 169.788 Z" fill="#ffffff" fill-rule="evenodd" fill-opacity="1" /><path clip-path="url(#clip440)" d="M834.184 133.046 L841.638 133.046 L841.638 178.416 L834.184 178.416 L834.184 133.046 M834.184 115.384 L841.638 115.384 L841.638 124.823 L834.184 124.823 L834.184 115.384 Z" fill="#ffffff" fill-rule="evenodd" fill-opacity="1" /><path clip-path="url(#clip440)" d="M851.886 133.046 L859.786 133.046 L873.964 171.124 L888.142 133.046 L896.041 133.046 L879.027 178.416 L868.9 178.416 L851.886 133.046 Z" fill="#ffffff" fill-rule="evenodd" fill-opacity="1" /><path clip-path="url(#clip440)" d="M945.138 153.868 L945.138 157.513 L910.867 157.513 Q911.354 165.21 915.486 169.261 Q919.658 173.271 927.071 173.271 Q931.365 173.271 935.375 172.218 Q939.426 171.165 943.396 169.058 L943.396 176.107 Q939.386 177.808 935.173 178.7 Q930.96 179.591 926.626 179.591 Q915.769 179.591 909.409 173.271 Q903.09 166.952 903.09 156.177 Q903.09 145.037 909.085 138.515 Q915.121 131.952 925.329 131.952 Q934.484 131.952 939.791 137.866 Q945.138 143.74 945.138 153.868 M937.684 151.68 Q937.603 145.563 934.241 141.917 Q930.919 138.272 925.41 138.272 Q919.172 138.272 915.405 141.796 Q911.678 145.32 911.111 151.721 L937.684 151.68 Z" fill="#ffffff" fill-rule="evenodd" fill-opacity="1" /><path clip-path="url(#clip440)" d="M995.086 151.032 L995.086 178.416 L987.632 178.416 L987.632 151.275 Q987.632 144.834 985.121 141.634 Q982.609 138.434 977.586 138.434 Q971.55 138.434 968.066 142.282 Q964.582 146.13 964.582 152.774 L964.582 178.416 L957.088 178.416 L957.088 133.046 L964.582 133.046 L964.582 140.094 Q967.256 136.003 970.861 133.978 Q974.507 131.952 979.247 131.952 Q987.065 131.952 991.075 136.813 Q995.086 141.634 995.086 151.032 Z" fill="#ffffff" fill-rule="evenodd" fill-opacity="1" /><path clip-path="url(#clip440)" d="M1036.65 117.936 L1048.84 117.936 L1064.28 159.093 L1079.79 117.936 L1091.98 117.936 L1091.98 178.416 L1084 178.416 L1084 125.309 L1068.41 166.79 L1060.18 166.79 L1044.59 125.309 L1044.59 178.416 L1036.65 178.416 L1036.65 117.936 Z" fill="#ffffff" fill-rule="evenodd" fill-opacity="1" /><path clip-path="url(#clip440)" d="M1128.52 155.609 Q1119.49 155.609 1116.01 157.675 Q1112.52 159.741 1112.52 164.724 Q1112.52 168.694 1115.11 171.043 Q1117.75 173.352 1122.24 173.352 Q1128.44 173.352 1132.17 168.977 Q1135.94 164.562 1135.94 157.27 L1135.94 155.609 L1128.52 155.609 M1143.39 152.531 L1143.39 178.416 L1135.94 178.416 L1135.94 171.529 Q1133.38 175.661 1129.58 177.646 Q1125.77 179.591 1120.26 179.591 Q1113.29 179.591 1109.16 175.702 Q1105.07 171.773 1105.07 165.21 Q1105.07 157.554 1110.17 153.665 Q1115.32 149.776 1125.48 149.776 L1135.94 149.776 L1135.94 149.047 Q1135.94 143.902 1132.53 141.107 Q1129.17 138.272 1123.05 138.272 Q1119.16 138.272 1115.48 139.203 Q1111.79 140.135 1108.39 141.998 L1108.39 135.112 Q1112.48 133.532 1116.33 132.762 Q1120.18 131.952 1123.82 131.952 Q1133.67 131.952 1138.53 137.056 Q1143.39 142.16 1143.39 152.531 Z" fill="#ffffff" fill-rule="evenodd" fill-opacity="1" /><path clip-path="url(#clip440)" d="M1196.46 133.046 L1180.05 155.123 L1197.31 178.416 L1188.52 178.416 L1175.31 160.592 L1162.1 178.416 L1153.31 178.416 L1170.94 154.678 L1154.81 133.046 L1163.6 133.046 L1175.63 149.209 L1187.67 133.046 L1196.46 133.046 Z" fill="#ffffff" fill-rule="evenodd" fill-opacity="1" /><path clip-path="url(#clip440)" d="M1226.15 117.936 L1277.31 117.936 L1277.31 124.823 L1255.84 124.823 L1255.84 178.416 L1247.62 178.416 L1247.62 124.823 L1226.15 124.823 L1226.15 117.936 Z" fill="#ffffff" fill-rule="evenodd" fill-opacity="1" /><path clip-path="url(#clip440)" d="M1300.81 178.416 L1277.72 117.936 L1286.26 117.936 L1305.43 168.856 L1324.63 117.936 L1333.13 117.936 L1310.08 178.416 L1300.81 178.416 Z" fill="#ffffff" fill-rule="evenodd" fill-opacity="1" /><path clip-path="url(#clip440)" d="M1387.25 122.595 L1387.25 131.223 Q1383.12 127.375 1378.42 125.471 Q1373.76 123.567 1368.5 123.567 Q1358.13 123.567 1352.62 129.927 Q1347.11 136.246 1347.11 148.237 Q1347.11 160.187 1352.62 166.547 Q1358.13 172.866 1368.5 172.866 Q1373.76 172.866 1378.42 170.962 Q1383.12 169.058 1387.25 165.21 L1387.25 173.757 Q1382.96 176.674 1378.14 178.132 Q1373.36 179.591 1368.01 179.591 Q1354.28 179.591 1346.38 171.205 Q1338.48 162.78 1338.48 148.237 Q1338.48 133.654 1346.38 125.268 Q1354.28 116.842 1368.01 116.842 Q1373.44 116.842 1378.22 118.301 Q1383.04 119.718 1387.25 122.595 Z" fill="#ffffff" fill-rule="evenodd" fill-opacity="1" /><path clip-path="url(#clip440)" d="M1434.45 124.661 L1434.45 171.691 L1444.33 171.691 Q1456.85 171.691 1462.64 166.02 Q1468.47 160.349 1468.47 148.115 Q1468.47 135.963 1462.64 130.332 Q1456.85 124.661 1444.33 124.661 L1434.45 124.661 M1426.26 117.936 L1443.08 117.936 Q1460.66 117.936 1468.88 125.268 Q1477.1 132.56 1477.1 148.115 Q1477.1 163.752 1468.84 171.084 Q1460.58 178.416 1443.08 178.416 L1426.26 178.416 L1426.26 117.936 Z" fill="#ffffff" fill-rule="evenodd" fill-opacity="1" /><path clip-path="url(#clip440)" d="M1528.63 153.868 L1528.63 157.513 L1494.36 157.513 Q1494.85 165.21 1498.98 169.261 Q1503.15 173.271 1510.56 173.271 Q1514.86 173.271 1518.87 172.218 Q1522.92 171.165 1526.89 169.058 L1526.89 176.107 Q1522.88 177.808 1518.67 178.7 Q1514.45 179.591 1510.12 179.591 Q1499.26 179.591 1492.9 173.271 Q1486.58 166.952 1486.58 156.177 Q1486.58 145.037 1492.58 138.515 Q1498.61 131.952 1508.82 131.952 Q1517.98 131.952 1523.28 137.866 Q1528.63 143.74 1528.63 153.868 M1521.18 151.68 Q1521.1 145.563 1517.73 141.917 Q1514.41 138.272 1508.9 138.272 Q1502.66 138.272 1498.9 141.796 Q1495.17 145.32 1494.6 151.721 L1521.18 151.68 Z" fill="#ffffff" fill-rule="evenodd" fill-opacity="1" /><path clip-path="url(#clip440)" d="M1563.83 115.384 L1563.83 121.582 L1556.7 121.582 Q1552.69 121.582 1551.11 123.202 Q1549.57 124.823 1549.57 129.035 L1549.57 133.046 L1561.85 133.046 L1561.85 138.839 L1549.57 138.839 L1549.57 178.416 L1542.08 178.416 L1542.08 138.839 L1534.95 138.839 L1534.95 133.046 L1542.08 133.046 L1542.08 129.886 Q1542.08 122.311 1545.6 118.868 Q1549.13 115.384 1556.78 115.384 L1563.83 115.384 Z" fill="#ffffff" fill-rule="evenodd" fill-opacity="1" /><path clip-path="url(#clip440)" d="M1570.07 115.384 L1577.52 115.384 L1577.52 178.416 L1570.07 178.416 L1570.07 115.384 Z" fill="#ffffff" fill-rule="evenodd" fill-opacity="1" /><path clip-path="url(#clip440)" d="M1631.93 153.868 L1631.93 157.513 L1597.66 157.513 Q1598.14 165.21 1602.28 169.261 Q1606.45 173.271 1613.86 173.271 Q1618.16 173.271 1622.17 172.218 Q1626.22 171.165 1630.19 169.058 L1630.19 176.107 Q1626.18 177.808 1621.96 178.7 Q1617.75 179.591 1613.42 179.591 Q1602.56 179.591 1596.2 173.271 Q1589.88 166.952 1589.88 156.177 Q1589.88 145.037 1595.88 138.515 Q1601.91 131.952 1612.12 131.952 Q1621.27 131.952 1626.58 137.866 Q1631.93 143.74 1631.93 153.868 M1624.47 151.68 Q1624.39 145.563 1621.03 141.917 Q1617.71 138.272 1612.2 138.272 Q1605.96 138.272 1602.19 141.796 Q1598.47 145.32 1597.9 151.721 L1624.47 151.68 Z" fill="#ffffff" fill-rule="evenodd" fill-opacity="1" /><path clip-path="url(#clip440)" d="M1676.81 134.788 L1676.81 141.755 Q1673.65 140.013 1670.45 139.163 Q1667.29 138.272 1664.05 138.272 Q1656.8 138.272 1652.79 142.89 Q1648.78 147.467 1648.78 155.771 Q1648.78 164.076 1652.79 168.694 Q1656.8 173.271 1664.05 173.271 Q1667.29 173.271 1670.45 172.421 Q1673.65 171.529 1676.81 169.788 L1676.81 176.674 Q1673.69 178.132 1670.33 178.862 Q1667.01 179.591 1663.24 179.591 Q1652.99 179.591 1646.96 173.15 Q1640.92 166.709 1640.92 155.771 Q1640.92 144.672 1647 138.312 Q1653.11 131.952 1663.73 131.952 Q1667.17 131.952 1670.45 132.681 Q1673.73 133.37 1676.81 134.788 Z" fill="#ffffff" fill-rule="evenodd" fill-opacity="1" /><path clip-path="url(#clip440)" d="M1697.15 120.164 L1697.15 133.046 L1712.5 133.046 L1712.5 138.839 L1697.15 138.839 L1697.15 163.468 Q1697.15 169.018 1698.65 170.598 Q1700.19 172.178 1704.84 172.178 L1712.5 172.178 L1712.5 178.416 L1704.84 178.416 Q1696.22 178.416 1692.94 175.216 Q1689.65 171.975 1689.65 163.468 L1689.65 138.839 L1684.19 138.839 L1684.19 133.046 L1689.65 133.046 L1689.65 120.164 L1697.15 120.164 Z" fill="#ffffff" fill-rule="evenodd" fill-opacity="1" /><path clip-path="url(#clip440)" d="M1722.3 133.046 L1729.76 133.046 L1729.76 178.416 L1722.3 178.416 L1722.3 133.046 M1722.3 115.384 L1729.76 115.384 L1729.76 124.823 L1722.3 124.823 L1722.3 115.384 Z" fill="#ffffff" fill-rule="evenodd" fill-opacity="1" /><path clip-path="url(#clip440)" d="M1762.93 138.272 Q1756.94 138.272 1753.46 142.971 Q1749.97 147.629 1749.97 155.771 Q1749.97 163.914 1753.42 168.613 Q1756.9 173.271 1762.93 173.271 Q1768.89 173.271 1772.37 168.572 Q1775.86 163.873 1775.86 155.771 Q1775.86 147.71 1772.37 143.011 Q1768.89 138.272 1762.93 138.272 M1762.93 131.952 Q1772.66 131.952 1778.21 138.272 Q1783.76 144.591 1783.76 155.771 Q1783.76 166.911 1778.21 173.271 Q1772.66 179.591 1762.93 179.591 Q1753.17 179.591 1747.62 173.271 Q1742.11 166.911 1742.11 155.771 Q1742.11 144.591 1747.62 138.272 Q1753.17 131.952 1762.93 131.952 Z" fill="#ffffff" fill-rule="evenodd" fill-opacity="1" /><path clip-path="url(#clip440)" d="M1833.83 151.032 L1833.83 178.416 L1826.37 178.416 L1826.37 151.275 Q1826.37 144.834 1823.86 141.634 Q1821.35 138.434 1816.33 138.434 Q1810.29 138.434 1806.81 142.282 Q1803.32 146.13 1803.32 152.774 L1803.32 178.416 L1795.83 178.416 L1795.83 133.046 L1803.32 133.046 L1803.32 140.094 Q1806 136.003 1809.6 133.978 Q1813.25 131.952 1817.99 131.952 Q1825.8 131.952 1829.82 136.813 Q1833.83 141.634 1833.83 151.032 Z" fill="#ffffff" fill-rule="evenodd" fill-opacity="1" /><polyline clip-path="url(#clip442)" style="stroke:#fe4365; stroke-linecap:butt; stroke-linejoin:round; stroke-width:12; stroke-opacity:1; fill:none" points="
  307.38,1388.11 320.708,1372.37 334.035,1372.37 347.363,1356.68 360.69,1356.68 374.018,1341.03 387.345,1341.03 400.673,1325.47 414,1309.87 427.328,1309.87 
  440.655,1294.44 453.983,1294.44 467.31,1278.9 480.638,1278.9 493.965,1263.57 507.293,1263.57 520.62,1248.25 533.948,1233.01 547.276,1233.01 560.603,1217.53 
  573.931,1217.53 587.258,1202.28 600.586,1202.28 613.913,1187.32 627.241,1187.32 640.568,1171.91 653.896,1157.23 667.223,1157.23 680.551,1141.96 693.878,1141.96 
  707.206,1127.39 720.533,1127.39 733.861,1112.4 747.188,1112.4 760.516,1097.12 773.844,1097.12 787.171,1082.73 800.499,1067.3 813.826,1067.3 827.154,1053.15 
  840.481,1053.15 853.809,1037.78 867.136,1037.78 880.464,1023.46 893.791,1015.4 907.119,1009.36 920.446,993.451 933.774,993.451 947.101,979.458 960.429,979.458 
  973.756,965.753 987.084,965.753 1000.41,951.366 1013.74,936.394 1027.07,936.394 1040.39,920.752 1053.72,920.752 1067.05,907.786 1080.38,907.786 1093.7,893.244 
  1107.03,893.244 1120.36,878.98 1133.69,863.628 1147.01,863.628 1160.34,851.73 1173.67,851.73 1187,836.945 1200.32,836.945 1213.65,821.083 1226.98,821.083 
  1240.31,806.499 1253.63,792.469 1266.96,792.469 1280.29,778.462 1293.62,778.462 1306.94,764.334 1320.27,764.334 1333.6,750.324 1346.93,750.324 1360.25,737.05 
  1373.58,725.303 1386.91,725.303 1400.24,712.866 1413.56,712.866 1426.89,697.458 1440.22,697.458 1453.55,680.874 1466.88,680.874 1480.2,669.701 1493.53,658.171 
  1506.86,658.171 1520.19,639.927 1533.51,639.927 1546.84,629.239 1560.17,629.239 1573.5,616.679 1586.82,616.679 1600.15,598.967 1613.48,591.143 1626.81,591.143 
  1640.13,571.656 1653.46,571.656 1666.79,564.263 1680.12,564.263 1693.44,544.947 1706.77,544.947 1720.1,537.707 1733.43,517.921 1746.75,517.921 1760.08,511.652 
  1773.41,511.652 1786.74,491.128 1800.06,491.128 1813.39,484.824 1826.72,484.824 1840.05,466.547 1853.37,454.604 1866.7,454.604 1880.03,445.396 1893.36,445.396 
  1906.68,424.85 1920.01,424.85 1933.34,419.543 1946.67,419.543 1959.99,403.387 1973.32,386.18 1986.65,386.18 1999.98,381.727 2013.3,381.727 2026.63,363.567 
  2039.96,363.567 2053.29,347.166 2066.61,347.166 2079.94,343.128 2093.27,327.135 2106.6,327.135 2119.92,307.686 2133.25,307.686 2146.58,302.586 2159.91,302.586 
  2173.23,292.522 2186.56,292.522 2199.89,270.749 2213.22,258.203 2226.54,258.203 2239.87,254.818 2253.2,254.818 2266.53,240.762 2279.85,240.762 2293.18,219.025 
  
  "/>
<polyline clip-path="url(#clip442)" style="stroke:#9370db; stroke-linecap:butt; stroke-linejoin:round; stroke-width:12; stroke-opacity:1; fill:none" stroke-dasharray="48, 30" points="
  1226.98,2662.41 1226.98,-1055.28 
  "/>
<path clip-path="url(#clip440)" d="
M317.971 380.78 L985.07 380.78 L985.07 225.26 L317.971 225.26  Z
  " fill="#363d46" fill-rule="evenodd" fill-opacity="1"/>
<polyline clip-path="url(#clip440)" style="stroke:#ffffff; stroke-linecap:butt; stroke-linejoin:round; stroke-width:4; stroke-opacity:1; fill:none" points="
  317.971,380.78 985.07,380.78 985.07,225.26 317.971,225.26 317.971,380.78 
  "/>
<polyline clip-path="url(#clip440)" style="stroke:#fe4365; stroke-linecap:butt; stroke-linejoin:round; stroke-width:4; stroke-opacity:1; fill:none" points="
  341.359,277.1 481.689,277.1 
  "/>
<path clip-path="url(#clip440)" d="M509.753 263.662 L509.753 290.537 L515.402 290.537 Q522.554 290.537 525.865 287.296 Q529.198 284.056 529.198 277.065 Q529.198 270.121 525.865 266.903 Q522.554 263.662 515.402 263.662 L509.753 263.662 M505.078 259.82 L514.684 259.82 Q524.73 259.82 529.429 264.01 Q534.128 268.176 534.128 277.065 Q534.128 286 529.406 290.19 Q524.684 294.38 514.684 294.38 L505.078 294.38 L505.078 259.82 Z" fill="#ffffff" fill-rule="evenodd" fill-opacity="1" /><path clip-path="url(#clip440)" d="M563.573 280.352 L563.573 282.435 L543.989 282.435 Q544.267 286.833 546.628 289.148 Q549.013 291.44 553.249 291.44 Q555.702 291.44 557.994 290.838 Q560.309 290.236 562.577 289.033 L562.577 293.06 Q560.286 294.032 557.878 294.542 Q555.471 295.051 552.994 295.051 Q546.79 295.051 543.156 291.44 Q539.545 287.829 539.545 281.671 Q539.545 275.306 542.971 271.579 Q546.42 267.829 552.253 267.829 Q557.485 267.829 560.517 271.209 Q563.573 274.565 563.573 280.352 M559.313 279.102 Q559.267 275.607 557.346 273.523 Q555.448 271.44 552.3 271.44 Q548.735 271.44 546.582 273.454 Q544.452 275.468 544.128 279.125 L559.313 279.102 Z" fill="#ffffff" fill-rule="evenodd" fill-opacity="1" /><path clip-path="url(#clip440)" d="M589.221 269.449 L589.221 273.431 Q587.415 272.435 585.586 271.949 Q583.781 271.44 581.929 271.44 Q577.786 271.44 575.494 274.079 Q573.202 276.695 573.202 281.44 Q573.202 286.185 575.494 288.824 Q577.786 291.44 581.929 291.44 Q583.781 291.44 585.586 290.954 Q587.415 290.445 589.221 289.449 L589.221 293.384 Q587.438 294.218 585.517 294.634 Q583.619 295.051 581.466 295.051 Q575.61 295.051 572.161 291.37 Q568.712 287.69 568.712 281.44 Q568.712 275.097 572.184 271.463 Q575.679 267.829 581.744 267.829 Q583.711 267.829 585.586 268.246 Q587.461 268.639 589.221 269.449 Z" fill="#ffffff" fill-rule="evenodd" fill-opacity="1" /><path clip-path="url(#clip440)" d="M596.628 258.361 L600.887 258.361 L600.887 294.38 L596.628 294.38 L596.628 258.361 Z" fill="#ffffff" fill-rule="evenodd" fill-opacity="1" /><path clip-path="url(#clip440)" d="M631.975 280.352 L631.975 282.435 L612.392 282.435 Q612.67 286.833 615.031 289.148 Q617.415 291.44 621.651 291.44 Q624.105 291.44 626.396 290.838 Q628.711 290.236 630.98 289.033 L630.98 293.06 Q628.688 294.032 626.281 294.542 Q623.873 295.051 621.396 295.051 Q615.193 295.051 611.559 291.44 Q607.947 287.829 607.947 281.671 Q607.947 275.306 611.373 271.579 Q614.822 267.829 620.656 267.829 Q625.887 267.829 628.92 271.209 Q631.975 274.565 631.975 280.352 M627.716 279.102 Q627.67 275.607 625.748 273.523 Q623.85 271.44 620.702 271.44 Q617.137 271.44 614.984 273.454 Q612.855 275.468 612.531 279.125 L627.716 279.102 Z" fill="#ffffff" fill-rule="evenodd" fill-opacity="1" /><path clip-path="url(#clip440)" d="M657.623 269.449 L657.623 273.431 Q655.818 272.435 653.989 271.949 Q652.183 271.44 650.331 271.44 Q646.188 271.44 643.896 274.079 Q641.605 276.695 641.605 281.44 Q641.605 286.185 643.896 288.824 Q646.188 291.44 650.331 291.44 Q652.183 291.44 653.989 290.954 Q655.818 290.445 657.623 289.449 L657.623 293.384 Q655.841 294.218 653.919 294.634 Q652.021 295.051 649.868 295.051 Q644.012 295.051 640.563 291.37 Q637.114 287.69 637.114 281.44 Q637.114 275.097 640.586 271.463 Q644.081 267.829 650.146 267.829 Q652.114 267.829 653.989 268.246 Q655.864 268.639 657.623 269.449 Z" fill="#ffffff" fill-rule="evenodd" fill-opacity="1" /><path clip-path="url(#clip440)" d="M669.243 261.093 L669.243 268.454 L678.016 268.454 L678.016 271.764 L669.243 271.764 L669.243 285.838 Q669.243 289.009 670.1 289.912 Q670.979 290.815 673.642 290.815 L678.016 290.815 L678.016 294.38 L673.642 294.38 Q668.711 294.38 666.836 292.551 Q664.961 290.699 664.961 285.838 L664.961 271.764 L661.836 271.764 L661.836 268.454 L664.961 268.454 L664.961 261.093 L669.243 261.093 Z" fill="#ffffff" fill-rule="evenodd" fill-opacity="1" /><path clip-path="url(#clip440)" d="M705.794 280.352 L705.794 282.435 L686.211 282.435 Q686.489 286.833 688.85 289.148 Q691.234 291.44 695.47 291.44 Q697.924 291.44 700.215 290.838 Q702.53 290.236 704.799 289.033 L704.799 293.06 Q702.507 294.032 700.1 294.542 Q697.692 295.051 695.215 295.051 Q689.012 295.051 685.378 291.44 Q681.766 287.829 681.766 281.671 Q681.766 275.306 685.192 271.579 Q688.641 267.829 694.475 267.829 Q699.706 267.829 702.739 271.209 Q705.794 274.565 705.794 280.352 M701.535 279.102 Q701.489 275.607 699.567 273.523 Q697.669 271.44 694.521 271.44 Q690.956 271.44 688.803 273.454 Q686.674 275.468 686.35 279.125 L701.535 279.102 Z" fill="#ffffff" fill-rule="evenodd" fill-opacity="1" /><path clip-path="url(#clip440)" d="M729.845 272.389 L729.845 258.361 L734.104 258.361 L734.104 294.38 L729.845 294.38 L729.845 290.491 Q728.502 292.806 726.442 293.94 Q724.405 295.051 721.535 295.051 Q716.836 295.051 713.873 291.301 Q710.933 287.551 710.933 281.44 Q710.933 275.329 713.873 271.579 Q716.836 267.829 721.535 267.829 Q724.405 267.829 726.442 268.963 Q728.502 270.074 729.845 272.389 M715.331 281.44 Q715.331 286.139 717.252 288.824 Q719.197 291.486 722.576 291.486 Q725.956 291.486 727.9 288.824 Q729.845 286.139 729.845 281.44 Q729.845 276.741 727.9 274.079 Q725.956 271.394 722.576 271.394 Q719.197 271.394 717.252 274.079 Q715.331 276.741 715.331 281.44 Z" fill="#ffffff" fill-rule="evenodd" fill-opacity="1" /><path clip-path="url(#clip440)" d="M758.132 259.82 L762.808 259.82 L762.808 294.38 L758.132 294.38 L758.132 259.82 Z" fill="#ffffff" fill-rule="evenodd" fill-opacity="1" /><path clip-path="url(#clip440)" d="M792.113 273.431 Q793.71 270.56 795.933 269.195 Q798.155 267.829 801.164 267.829 Q805.215 267.829 807.414 270.676 Q809.613 273.5 809.613 278.732 L809.613 294.38 L805.331 294.38 L805.331 278.871 Q805.331 275.144 804.011 273.338 Q802.692 271.533 799.983 271.533 Q796.673 271.533 794.752 273.732 Q792.831 275.931 792.831 279.727 L792.831 294.38 L788.548 294.38 L788.548 278.871 Q788.548 275.121 787.229 273.338 Q785.909 271.533 783.155 271.533 Q779.891 271.533 777.97 273.755 Q776.048 275.954 776.048 279.727 L776.048 294.38 L771.766 294.38 L771.766 268.454 L776.048 268.454 L776.048 272.482 Q777.507 270.097 779.544 268.963 Q781.581 267.829 784.382 267.829 Q787.206 267.829 789.173 269.264 Q791.164 270.699 792.113 273.431 Z" fill="#ffffff" fill-rule="evenodd" fill-opacity="1" /><path clip-path="url(#clip440)" d="M822.229 290.491 L822.229 304.241 L817.946 304.241 L817.946 268.454 L822.229 268.454 L822.229 272.389 Q823.571 270.074 825.608 268.963 Q827.668 267.829 830.516 267.829 Q835.238 267.829 838.178 271.579 Q841.141 275.329 841.141 281.44 Q841.141 287.551 838.178 291.301 Q835.238 295.051 830.516 295.051 Q827.668 295.051 825.608 293.94 Q823.571 292.806 822.229 290.491 M836.719 281.44 Q836.719 276.741 834.775 274.079 Q832.854 271.394 829.474 271.394 Q826.094 271.394 824.15 274.079 Q822.229 276.741 822.229 281.44 Q822.229 286.139 824.15 288.824 Q826.094 291.486 829.474 291.486 Q832.854 291.486 834.775 288.824 Q836.719 286.139 836.719 281.44 Z" fill="#ffffff" fill-rule="evenodd" fill-opacity="1" /><path clip-path="url(#clip440)" d="M847.761 284.148 L847.761 268.454 L852.02 268.454 L852.02 283.986 Q852.02 287.667 853.455 289.519 Q854.891 291.347 857.761 291.347 Q861.21 291.347 863.201 289.148 Q865.215 286.949 865.215 283.153 L865.215 268.454 L869.474 268.454 L869.474 294.38 L865.215 294.38 L865.215 290.398 Q863.664 292.759 861.603 293.917 Q859.566 295.051 856.858 295.051 Q852.391 295.051 850.076 292.273 Q847.761 289.495 847.761 284.148 M858.478 267.829 L858.478 267.829 Z" fill="#ffffff" fill-rule="evenodd" fill-opacity="1" /><path clip-path="url(#clip440)" d="M878.247 258.361 L882.506 258.361 L882.506 294.38 L878.247 294.38 L878.247 258.361 Z" fill="#ffffff" fill-rule="evenodd" fill-opacity="1" /><path clip-path="url(#clip440)" d="M907.946 269.218 L907.946 273.246 Q906.14 272.32 904.196 271.857 Q902.251 271.394 900.168 271.394 Q896.997 271.394 895.4 272.366 Q893.826 273.338 893.826 275.283 Q893.826 276.764 894.96 277.621 Q896.094 278.454 899.52 279.218 L900.978 279.542 Q905.515 280.514 907.413 282.296 Q909.335 284.056 909.335 287.227 Q909.335 290.838 906.464 292.945 Q903.617 295.051 898.617 295.051 Q896.534 295.051 894.265 294.634 Q892.02 294.241 889.52 293.431 L889.52 289.033 Q891.881 290.259 894.173 290.884 Q896.464 291.486 898.71 291.486 Q901.719 291.486 903.339 290.468 Q904.96 289.426 904.96 287.551 Q904.96 285.815 903.779 284.889 Q902.622 283.963 898.663 283.107 L897.182 282.759 Q893.224 281.926 891.464 280.213 Q889.705 278.477 889.705 275.468 Q889.705 271.81 892.298 269.82 Q894.89 267.829 899.659 267.829 Q902.02 267.829 904.103 268.176 Q906.187 268.523 907.946 269.218 Z" fill="#ffffff" fill-rule="evenodd" fill-opacity="1" /><path clip-path="url(#clip440)" d="M938.293 280.352 L938.293 282.435 L918.71 282.435 Q918.987 286.833 921.349 289.148 Q923.733 291.44 927.969 291.44 Q930.423 291.44 932.714 290.838 Q935.029 290.236 937.298 289.033 L937.298 293.06 Q935.006 294.032 932.598 294.542 Q930.191 295.051 927.714 295.051 Q921.511 295.051 917.876 291.44 Q914.265 287.829 914.265 281.671 Q914.265 275.306 917.691 271.579 Q921.14 267.829 926.973 267.829 Q932.205 267.829 935.237 271.209 Q938.293 274.565 938.293 280.352 M934.034 279.102 Q933.987 275.607 932.066 273.523 Q930.168 271.44 927.02 271.44 Q923.455 271.44 921.302 273.454 Q919.173 275.468 918.849 279.125 L934.034 279.102 Z" fill="#ffffff" fill-rule="evenodd" fill-opacity="1" /><polyline clip-path="url(#clip440)" style="stroke:#9370db; stroke-linecap:butt; stroke-linejoin:round; stroke-width:4; stroke-opacity:1; fill:none" stroke-dasharray="16, 10" points="
  341.359,328.94 481.689,328.94 
  "/>
<path clip-path="url(#clip440)" d="M532.948 314.322 L532.948 319.252 Q530.587 317.053 527.902 315.965 Q525.24 314.877 522.23 314.877 Q516.304 314.877 513.156 318.512 Q510.008 322.123 510.008 328.974 Q510.008 335.803 513.156 339.437 Q516.304 343.048 522.23 343.048 Q525.24 343.048 527.902 341.96 Q530.587 340.873 532.948 338.673 L532.948 343.558 Q530.494 345.224 527.74 346.058 Q525.008 346.891 521.953 346.891 Q514.105 346.891 509.591 342.099 Q505.078 337.285 505.078 328.974 Q505.078 320.641 509.591 315.85 Q514.105 311.035 521.953 311.035 Q525.054 311.035 527.786 311.868 Q530.54 312.678 532.948 314.322 Z" fill="#ffffff" fill-rule="evenodd" fill-opacity="1" /><path clip-path="url(#clip440)" d="M539.545 335.988 L539.545 320.294 L543.804 320.294 L543.804 335.826 Q543.804 339.507 545.239 341.359 Q546.675 343.187 549.545 343.187 Q552.994 343.187 554.985 340.988 Q556.999 338.789 556.999 334.993 L556.999 320.294 L561.258 320.294 L561.258 346.22 L556.999 346.22 L556.999 342.238 Q555.448 344.599 553.388 345.757 Q551.35 346.891 548.642 346.891 Q544.175 346.891 541.86 344.113 Q539.545 341.335 539.545 335.988 M550.263 319.669 L550.263 319.669 Z" fill="#ffffff" fill-rule="evenodd" fill-opacity="1" /><path clip-path="url(#clip440)" d="M585.054 324.275 Q584.336 323.859 583.48 323.674 Q582.647 323.465 581.628 323.465 Q578.017 323.465 576.073 325.826 Q574.151 328.164 574.151 332.562 L574.151 346.22 L569.869 346.22 L569.869 320.294 L574.151 320.294 L574.151 324.322 Q575.494 321.961 577.647 320.826 Q579.799 319.669 582.878 319.669 Q583.318 319.669 583.85 319.738 Q584.383 319.785 585.031 319.9 L585.054 324.275 Z" fill="#ffffff" fill-rule="evenodd" fill-opacity="1" /><path clip-path="url(#clip440)" d="M603.711 324.275 Q602.994 323.859 602.137 323.674 Q601.304 323.465 600.285 323.465 Q596.674 323.465 594.73 325.826 Q592.809 328.164 592.809 332.562 L592.809 346.22 L588.526 346.22 L588.526 320.294 L592.809 320.294 L592.809 324.322 Q594.151 321.961 596.304 320.826 Q598.457 319.669 601.535 319.669 Q601.975 319.669 602.508 319.738 Q603.04 319.785 603.688 319.9 L603.711 324.275 Z" fill="#ffffff" fill-rule="evenodd" fill-opacity="1" /><path clip-path="url(#clip440)" d="M629.313 332.192 L629.313 334.275 L609.73 334.275 Q610.008 338.673 612.369 340.988 Q614.753 343.28 618.989 343.28 Q621.443 343.28 623.734 342.678 Q626.049 342.076 628.318 340.873 L628.318 344.9 Q626.026 345.872 623.619 346.382 Q621.211 346.891 618.734 346.891 Q612.531 346.891 608.896 343.28 Q605.285 339.669 605.285 333.511 Q605.285 327.146 608.711 323.419 Q612.16 319.669 617.994 319.669 Q623.225 319.669 626.258 323.049 Q629.313 326.405 629.313 332.192 M625.054 330.942 Q625.008 327.447 623.086 325.363 Q621.188 323.28 618.04 323.28 Q614.475 323.28 612.322 325.294 Q610.193 327.308 609.869 330.965 L625.054 330.942 Z" fill="#ffffff" fill-rule="evenodd" fill-opacity="1" /><path clip-path="url(#clip440)" d="M657.855 330.572 L657.855 346.22 L653.595 346.22 L653.595 330.711 Q653.595 327.03 652.16 325.201 Q650.725 323.373 647.855 323.373 Q644.406 323.373 642.415 325.572 Q640.424 327.771 640.424 331.567 L640.424 346.22 L636.142 346.22 L636.142 320.294 L640.424 320.294 L640.424 324.322 Q641.952 321.984 644.012 320.826 Q646.095 319.669 648.804 319.669 Q653.271 319.669 655.563 322.447 Q657.855 325.201 657.855 330.572 Z" fill="#ffffff" fill-rule="evenodd" fill-opacity="1" /><path clip-path="url(#clip440)" d="M670.563 312.933 L670.563 320.294 L679.336 320.294 L679.336 323.604 L670.563 323.604 L670.563 337.678 Q670.563 340.849 671.419 341.752 Q672.299 342.655 674.961 342.655 L679.336 342.655 L679.336 346.22 L674.961 346.22 Q670.03 346.22 668.155 344.391 Q666.28 342.539 666.28 337.678 L666.28 323.604 L663.155 323.604 L663.155 320.294 L666.28 320.294 L666.28 312.933 L670.563 312.933 Z" fill="#ffffff" fill-rule="evenodd" fill-opacity="1" /><path clip-path="url(#clip440)" d="M704.868 315.502 L704.868 342.377 L710.516 342.377 Q717.669 342.377 720.979 339.136 Q724.313 335.896 724.313 328.905 Q724.313 321.961 720.979 318.743 Q717.669 315.502 710.516 315.502 L704.868 315.502 M700.192 311.66 L709.799 311.66 Q719.845 311.66 724.544 315.85 Q729.243 320.016 729.243 328.905 Q729.243 337.84 724.521 342.03 Q719.799 346.22 709.799 346.22 L700.192 346.22 L700.192 311.66 Z" fill="#ffffff" fill-rule="evenodd" fill-opacity="1" /><path clip-path="url(#clip440)" d="M758.687 332.192 L758.687 334.275 L739.104 334.275 Q739.382 338.673 741.743 340.988 Q744.127 343.28 748.363 343.28 Q750.817 343.28 753.109 342.678 Q755.423 342.076 757.692 340.873 L757.692 344.9 Q755.4 345.872 752.993 346.382 Q750.586 346.891 748.109 346.891 Q741.905 346.891 738.271 343.28 Q734.66 339.669 734.66 333.511 Q734.66 327.146 738.086 323.419 Q741.535 319.669 747.368 319.669 Q752.599 319.669 755.632 323.049 Q758.687 326.405 758.687 332.192 M754.428 330.942 Q754.382 327.447 752.461 325.363 Q750.562 323.28 747.414 323.28 Q743.849 323.28 741.697 325.294 Q739.567 327.308 739.243 330.965 L754.428 330.942 Z" fill="#ffffff" fill-rule="evenodd" fill-opacity="1" /><path clip-path="url(#clip440)" d="M782.206 321.058 L782.206 325.086 Q780.4 324.16 778.456 323.697 Q776.511 323.234 774.428 323.234 Q771.257 323.234 769.66 324.206 Q768.085 325.178 768.085 327.123 Q768.085 328.604 769.22 329.461 Q770.354 330.294 773.78 331.058 L775.238 331.382 Q779.775 332.354 781.673 334.136 Q783.595 335.896 783.595 339.067 Q783.595 342.678 780.724 344.785 Q777.877 346.891 772.877 346.891 Q770.794 346.891 768.525 346.474 Q766.28 346.081 763.78 345.271 L763.78 340.873 Q766.141 342.099 768.433 342.724 Q770.724 343.326 772.97 343.326 Q775.979 343.326 777.599 342.308 Q779.22 341.266 779.22 339.391 Q779.22 337.655 778.039 336.729 Q776.882 335.803 772.923 334.947 L771.442 334.599 Q767.484 333.766 765.724 332.053 Q763.965 330.317 763.965 327.308 Q763.965 323.65 766.558 321.66 Q769.15 319.669 773.919 319.669 Q776.28 319.669 778.363 320.016 Q780.446 320.363 782.206 321.058 Z" fill="#ffffff" fill-rule="evenodd" fill-opacity="1" /><path clip-path="url(#clip440)" d="M790.377 320.294 L794.636 320.294 L794.636 346.22 L790.377 346.22 L790.377 320.294 M790.377 310.201 L794.636 310.201 L794.636 315.595 L790.377 315.595 L790.377 310.201 Z" fill="#ffffff" fill-rule="evenodd" fill-opacity="1" /><path clip-path="url(#clip440)" d="M820.608 332.956 Q820.608 328.326 818.687 325.78 Q816.789 323.234 813.34 323.234 Q809.914 323.234 807.993 325.78 Q806.095 328.326 806.095 332.956 Q806.095 337.562 807.993 340.109 Q809.914 342.655 813.34 342.655 Q816.789 342.655 818.687 340.109 Q820.608 337.562 820.608 332.956 M824.868 343.002 Q824.868 349.622 821.928 352.84 Q818.988 356.081 812.923 356.081 Q810.678 356.081 808.687 355.734 Q806.696 355.409 804.821 354.715 L804.821 350.572 Q806.696 351.59 808.525 352.076 Q810.354 352.562 812.252 352.562 Q816.442 352.562 818.525 350.363 Q820.608 348.187 820.608 343.766 L820.608 341.66 Q819.289 343.951 817.229 345.085 Q815.169 346.22 812.298 346.22 Q807.53 346.22 804.613 342.585 Q801.696 338.951 801.696 332.956 Q801.696 326.937 804.613 323.303 Q807.53 319.669 812.298 319.669 Q815.169 319.669 817.229 320.803 Q819.289 321.937 820.608 324.229 L820.608 320.294 L824.868 320.294 L824.868 343.002 Z" fill="#ffffff" fill-rule="evenodd" fill-opacity="1" /><path clip-path="url(#clip440)" d="M855.191 330.572 L855.191 346.22 L850.932 346.22 L850.932 330.711 Q850.932 327.03 849.497 325.201 Q848.062 323.373 845.192 323.373 Q841.742 323.373 839.752 325.572 Q837.761 327.771 837.761 331.567 L837.761 346.22 L833.479 346.22 L833.479 320.294 L837.761 320.294 L837.761 324.322 Q839.289 321.984 841.349 320.826 Q843.432 319.669 846.141 319.669 Q850.608 319.669 852.9 322.447 Q855.191 325.201 855.191 330.572 Z" fill="#ffffff" fill-rule="evenodd" fill-opacity="1" /></svg>
